sid,search,"splunk_server","_time","is_realtime","api_et","api_lt","event_count","exec_time","result_count","savedsearch_name","scan_count","search_et","search_lt",status,"total_run_time",provenance,"__mv_sid","__mv_search","__mv_splunk_server","__mv__time","__mv_is_realtime","__mv_api_et","__mv_api_lt","__mv_event_count","__mv_exec_time","__mv_result_count","__mv_savedsearch_name","__mv_scan_count","__mv_search_et","__mv_search_lt","__mv_status","__mv_total_run_time","__mv_provenance"
"admin__admin_bGljZW5zZV9tb25pdG9yX2Zvcl9zcGx1bms__search1_1489763949.324","| rest ""/services/licenser/licenses"" |search type=enterprise status=VALID | stats sum(quota) as quota | eval quota = ('quota'/1024/1024)","KI1-V-S-9010","1489763949.631565",0,"1489273200.000000000","1489763949.000000000",0,1489763949,1,search1,0,"1489273200.000000000","1489763949.000000000",completed,"0.046000",,,,,,,,,,,,,,,,,,
"admin__admin_bGljZW5zZV9tb25pdG9yX2Zvcl9zcGx1bms__search2_1489763949.325","| rest ""/services/licenser/licenses"" |search type=enterprise | eval creation_time=strftime(creation_time,""%d-%m-%Y""), days_until_expiration=round((expiration_time-now())/86400) , expiration_time=strftime(expiration_time,""%d-%m-%Y"") ,quota = ('quota'/1024/1024), is_unlimited =if('is_unlimited'==0,""no"",""yes"") | table label creation_time status  expiration_time days_until_expiration quota is_unlimited max_violations window_period | rename creation_time as creation_date, expiration_time as expiration_date","KI1-V-S-9010","1489763949.634170",0,"1489273200.000000000","1489763949.000000000",0,1489763949,4,search2,0,"1489273200.000000000","1489763949.000000000",completed,"0.043000",,,,,,,,,,,,,,,,,,
"admin__admin_bGljZW5zZV9tb25pdG9yX2Zvcl9zcGx1bms__search3_1489763950.326","| rest ""/services/licenser/pools"" | search stack_id=enterprise | eval effective_quota=effective_quota/1024/1024, used_bytes=used_bytes/1024/1024, percentage_used=((100/effective_quota)*used_bytes) | table description quota effective_quota used_bytes percentage_used","KI1-V-S-9010","1489763950.193650",0,,,0,1489763950,1,search3,0,,,completed,"0.032000",,,,,,,,,,,,,,,,,,
"admin__admin_bGljZW5zZV9tb25pdG9yX2Zvcl9zcGx1bms__search4_1489763950.327","| rest ""/services/licenser/slaves"" | table label warning_count active_pool_ids","KI1-V-S-9010","1489763950.194760",0,,,0,1489763950,1,search4,0,,,completed,"0.030000",,,,,,,,,,,,,,,,,,
"admin__admin_bGljZW5zZV9tb25pdG9yX2Zvcl9zcGx1bms__search1_1489763992.329","search index=_internal source=*license_usage.log type=Usage   | eval MB = round(b/1024/1024,2) | timechart span=1h sum(MB) as totalMB | eval hour = strftime(_time,""%H"") |streamstats  sum(totalMB) as totalCumulativeMB reset_before=""(""hour==0"")"" | fields - totalMB , hour | predict totalCumulativeMB future_timespan=24","KI1-V-S-9010","1489763992.727892",0,"1489158000.000000000","1489763992.000000000",19775,1489763992,0,search1,19915,"1489158000.000000000","1489763992.000000000",canceled,"2.872000",,,,,,,,,,,,,,,,,,
"admin__admin_bGljZW5zZV9tb25pdG9yX2Zvcl9zcGx1bms__search4_1489763992.331","search index=_internal source=*license_usage.log type=Usage | eval MB = b/1024/1024 | timechart span=1d useother=0  sum(MB) by h | rename h as Host, sum(MB) as Megabyte | sort – Megabyte","KI1-V-S-9010","1489763992.728562",0,"1489158000.000000000","1489763992.000000000",19775,1489763992,0,search4,19915,"1489158000.000000000","1489763992.000000000",canceled,"2.694000",,,,,,,,,,,,,,,,,,
"admin__admin_bGljZW5zZV9tb25pdG9yX2Zvcl9zcGx1bms__search5_1489763992.332","search index=_internal source=*license_usage.log type=Usage | eval MB = b/1024/1024 | timechart span=1d useother=0  sum(MB) by st | rename st as SourceType, sum(MB) as Megabyte | sort – Megabyte","KI1-V-S-9010","1489763992.735901",0,"1489158000.000000000","1489763992.000000000",19775,1489763992,0,search5,19915,"1489158000.000000000","1489763992.000000000",canceled,"2.695000",,,,,,,,,,,,,,,,,,
"admin__admin_bGljZW5zZV9tb25pdG9yX2Zvcl9zcGx1bms__search1_1489763996.333","| rest ""/services/licenser/licenses"" |search type=enterprise status=VALID | stats sum(quota) as quota | eval quota = ('quota'/1024/1024)","KI1-V-S-9010","1489763996.106124",0,"1489273200.000000000","1489763996.000000000",0,1489763996,1,search1,0,"1489273200.000000000","1489763996.000000000",completed,"0.035000",,,,,,,,,,,,,,,,,,
"admin__admin_bGljZW5zZV9tb25pdG9yX2Zvcl9zcGx1bms__search2_1489763996.334","| rest ""/services/licenser/licenses"" |search type=enterprise | eval creation_time=strftime(creation_time,""%d-%m-%Y""), days_until_expiration=round((expiration_time-now())/86400) , expiration_time=strftime(expiration_time,""%d-%m-%Y"") ,quota = ('quota'/1024/1024), is_unlimited =if('is_unlimited'==0,""no"",""yes"") | table label creation_time status  expiration_time days_until_expiration quota is_unlimited max_violations window_period | rename creation_time as creation_date, expiration_time as expiration_date","KI1-V-S-9010","1489763996.108049",0,"1489273200.000000000","1489763996.000000000",0,1489763996,4,search2,0,"1489273200.000000000","1489763996.000000000",completed,"0.041000",,,,,,,,,,,,,,,,,,
"admin__admin_bGljZW5zZV9tb25pdG9yX2Zvcl9zcGx1bms__search3_1489763996.335","| rest ""/services/licenser/pools"" | search stack_id=enterprise | eval effective_quota=effective_quota/1024/1024, used_bytes=used_bytes/1024/1024, percentage_used=((100/effective_quota)*used_bytes) | table description quota effective_quota used_bytes percentage_used","KI1-V-S-9010","1489763996.590585",0,,,0,1489763996,1,search3,0,,,completed,"0.033000",,,,,,,,,,,,,,,,,,
"admin__admin_bGljZW5zZV9tb25pdG9yX2Zvcl9zcGx1bms__search4_1489763996.336","| rest ""/services/licenser/slaves"" | table label warning_count active_pool_ids","KI1-V-S-9010","1489763996.591731",0,,,0,1489763996,1,search4,0,,,completed,"0.027000",,,,,,,,,,,,,,,,,,
"admin__admin_bGljZW5zZV9tb25pdG9yX2Zvcl9zcGx1bms__search1_1489764006.337","search index=_internal source=*license_usage.log type=Usage   | eval MB = round(b/1024/1024,2) | timechart span=1h sum(MB) as totalMB | eval hour = strftime(_time,""%H"") |streamstats  sum(totalMB) as totalCumulativeMB reset_before=""(""hour==0"")"" | fields - totalMB , hour | predict totalCumulativeMB future_timespan=24","KI1-V-S-9010","1489764006.992413",0,"1489158000.000000000","1489764006.000000000",23815,1489764007,193,search1,24020,"1489158000.000000000","1489764006.000000000",completed,"0.943000",,,,,,,,,,,,,,,,,,
"admin__admin_bGljZW5zZV9tb25pdG9yX2Zvcl9zcGx1bms__search2_1489764006.338","search index=_internal source=*license_usage.log type=Usage   | eval MB = round(b/1024/1024,2) | timechart span=1h sum(MB) as totalMB  | eval hour = strftime(_time,""%H"") |streamstats sum(totalMB) as totalCumulativeMB reset_before=""(""hour==0"")"" | fields - totalMB , hour | predict totalCumulativeMB future_timespan=24 | appendcols [ search index=_internal source=*license_usage.log type=Usage | dedup poolsz  | eval MB = round(b/1024/1024,2)  | stats sum(poolsz) as poolszMB | eval poolszMB = round(poolszMB/1024/1024,2) ] | streamstats  max(poolszMB) as ""licenseSizeInMB"" | fields - poolszMB","KI1-V-S-9010","1489764006.998574",0,"1489158000.000000000","1489764006.000000000",23815,1489764007,193,search2,24020,"1489158000.000000000","1489764006.000000000",completed,"1.506000",,,,,,,,,,,,,,,,,,
"admin__admin_bGljZW5zZV9tb25pdG9yX2Zvcl9zcGx1bms__search3_1489764006.339","search index=_internal source=*license_usage.log type=Usage | eval MB = b/1024/1024 | timechart span=1d useother=0  sum(MB) by idx | rename idx as Index, sum(MB) as Megabyte | sort – Megabyte","KI1-V-S-9010","1489764006.999341",0,"1489158000.000000000","1489764006.000000000",23815,1489764007,8,search3,24020,"1489158000.000000000","1489764006.000000000",completed,"0.826000",,,,,,,,,,,,,,,,,,
"admin__admin_bGljZW5zZV9tb25pdG9yX2Zvcl9zcGx1bms__search4_1489764006.340","search index=_internal source=*license_usage.log type=Usage | eval MB = b/1024/1024 | timechart span=1d useother=0  sum(MB) by h | rename h as Host, sum(MB) as Megabyte | sort – Megabyte","KI1-V-S-9010","1489764007.000333",0,"1489158000.000000000","1489764006.000000000",23815,1489764007,8,search4,24020,"1489158000.000000000","1489764006.000000000",completed,"0.816000",,,,,,,,,,,,,,,,,,
"admin__admin_bGljZW5zZV9tb25pdG9yX2Zvcl9zcGx1bms__search5_1489764006.341","search index=_internal source=*license_usage.log type=Usage | eval MB = b/1024/1024 | timechart span=1d useother=0  sum(MB) by st | rename st as SourceType, sum(MB) as Megabyte | sort – Megabyte","KI1-V-S-9010","1489764007.001041",0,"1489158000.000000000","1489764006.000000000",23815,1489764007,8,search5,24020,"1489158000.000000000","1489764006.000000000",completed,"0.802000",,,,,,,,,,,,,,,,,,
"admin__admin_bGljZW5zZV9tb25pdG9yX2Zvcl9zcGx1bms__search1_1489764075.342","| rest ""/services/licenser/licenses"" |search type=enterprise status=VALID | stats sum(quota) as quota | eval quota = ('quota'/1024/1024)","KI1-V-S-9010","1489764075.369144",0,"1489273200.000000000","1489764075.000000000",0,1489764075,1,search1,0,"1489273200.000000000","1489764075.000000000",completed,"0.038000",,,,,,,,,,,,,,,,,,
"admin__admin_bGljZW5zZV9tb25pdG9yX2Zvcl9zcGx1bms__search2_1489764075.343","| rest ""/services/licenser/licenses"" |search type=enterprise | eval creation_time=strftime(creation_time,""%d-%m-%Y""), days_until_expiration=round((expiration_time-now())/86400) , expiration_time=strftime(expiration_time,""%d-%m-%Y"") ,quota = ('quota'/1024/1024), is_unlimited =if('is_unlimited'==0,""no"",""yes"") | table label creation_time status  expiration_time days_until_expiration quota is_unlimited max_violations window_period | rename creation_time as creation_date, expiration_time as expiration_date","KI1-V-S-9010","1489764075.378403",0,"1489273200.000000000","1489764075.000000000",0,1489764075,4,search2,0,"1489273200.000000000","1489764075.000000000",completed,"0.045000",,,,,,,,,,,,,,,,,,
"admin__admin_bGljZW5zZV9tb25pdG9yX2Zvcl9zcGx1bms__search3_1489764075.344","| rest ""/services/licenser/pools"" | search stack_id=enterprise | eval effective_quota=effective_quota/1024/1024, used_bytes=used_bytes/1024/1024, percentage_used=((100/effective_quota)*used_bytes) | table description quota effective_quota used_bytes percentage_used","KI1-V-S-9010","1489764075.887381",0,,,0,1489764075,1,search3,0,,,completed,"0.029000",,,,,,,,,,,,,,,,,,
"admin__admin_bGljZW5zZV9tb25pdG9yX2Zvcl9zcGx1bms__search4_1489764075.345","| rest ""/services/licenser/slaves"" | table label warning_count active_pool_ids","KI1-V-S-9010","1489764075.887839",0,,,0,1489764075,1,search4,0,,,completed,"0.027000",,,,,,,,,,,,,,,,,,
"admin__admin_bGljZW5zZV9tb25pdG9yX2Zvcl9zcGx1bms__search2_1489764086.347","search index=_internal source=*license_usage.log type=Usage   | eval MB = round(b/1024/1024,2) | timechart span=1h sum(MB) as totalMB  | eval hour = strftime(_time,""%H"") |streamstats sum(totalMB) as totalCumulativeMB reset_before=""(""hour==0"")"" | fields - totalMB , hour | predict totalCumulativeMB future_timespan=24 | appendcols [ search index=_internal source=*license_usage.log type=Usage | dedup poolsz  | eval MB = round(b/1024/1024,2)  | stats sum(poolsz) as poolszMB | eval poolszMB = round(poolszMB/1024/1024,2) ] | streamstats  max(poolszMB) as ""licenseSizeInMB"" | fields - poolszMB","KI1-V-S-9010","1489764086.828811",0,"1489158000.000000000","1489764086.000000000",23825,1489764086,193,search2,23967,"1489158000.000000000","1489764086.000000000",completed,"1.544000",,,,,,,,,,,,,,,,,,
"admin__admin_bGljZW5zZV9tb25pdG9yX2Zvcl9zcGx1bms__search3_1489764086.348","search index=_internal source=*license_usage.log type=Usage | eval MB = b/1024/1024 | timechart span=1d useother=0  sum(MB) by idx | rename idx as Index, sum(MB) as Megabyte | sort – Megabyte","KI1-V-S-9010","1489764086.829542",0,"1489158000.000000000","1489764086.000000000",23825,1489764086,8,search3,23967,"1489158000.000000000","1489764086.000000000",completed,"0.791000",,,,,,,,,,,,,,,,,,
"admin__admin_bGljZW5zZV9tb25pdG9yX2Zvcl9zcGx1bms__search4_1489764086.349","search index=_internal source=*license_usage.log type=Usage | eval MB = b/1024/1024 | timechart span=1d useother=0  sum(MB) by h | rename h as Host, sum(MB) as Megabyte | sort – Megabyte","KI1-V-S-9010","1489764086.832163",0,"1489158000.000000000","1489764086.000000000",23825,1489764086,8,search4,23967,"1489158000.000000000","1489764086.000000000",completed,"0.830000",,,,,,,,,,,,,,,,,,
"admin__admin_bGljZW5zZV9tb25pdG9yX2Zvcl9zcGx1bms__search5_1489764086.350","search index=_internal source=*license_usage.log type=Usage | eval MB = b/1024/1024 | timechart span=1d useother=0  sum(MB) by st | rename st as SourceType, sum(MB) as Megabyte | sort – Megabyte","KI1-V-S-9010","1489764086.833748",0,"1489158000.000000000","1489764086.000000000",23825,1489764086,8,search5,23967,"1489158000.000000000","1489764086.000000000",completed,"0.816000",,,,,,,,,,,,,,,,,,
"admin__admin_bGljZW5zZV9tb25pdG9yX2Zvcl9zcGx1bms__search1_1490708540.2844","| rest ""/services/licenser/licenses"" |search type=enterprise status=VALID | stats sum(quota) as quota | eval quota = ('quota'/1024/1024)","KI1-V-S-9010","1490708540.094136",0,"1490482800.000000000","1490708540.000000000",0,1490708540,1,search1,0,"1490482800.000000000","1490708540.000000000",completed,"0.040000",,,,,,,,,,,,,,,,,,
"admin__admin_bGljZW5zZV9tb25pdG9yX2Zvcl9zcGx1bms__search2_1490708540.2845","| rest ""/services/licenser/licenses"" |search type=enterprise | eval creation_time=strftime(creation_time,""%d-%m-%Y""), days_until_expiration=round((expiration_time-now())/86400) , expiration_time=strftime(expiration_time,""%d-%m-%Y"") ,quota = ('quota'/1024/1024), is_unlimited =if('is_unlimited'==0,""no"",""yes"") | table label creation_time status  expiration_time days_until_expiration quota is_unlimited max_violations window_period | rename creation_time as creation_date, expiration_time as expiration_date","KI1-V-S-9010","1490708540.096929",0,"1490482800.000000000","1490708540.000000000",0,1490708540,4,search2,0,"1490482800.000000000","1490708540.000000000",completed,"0.040000",,,,,,,,,,,,,,,,,,
"admin__admin_bGljZW5zZV9tb25pdG9yX2Zvcl9zcGx1bms__search3_1490708540.2846","| rest ""/services/licenser/pools"" | search stack_id=enterprise | eval effective_quota=effective_quota/1024/1024, used_bytes=used_bytes/1024/1024, percentage_used=((100/effective_quota)*used_bytes) | table description quota effective_quota used_bytes percentage_used","KI1-V-S-9010","1490708540.628096",0,,,0,1490708540,1,search3,0,,,completed,"0.029000",,,,,,,,,,,,,,,,,,
"admin__admin_bGljZW5zZV9tb25pdG9yX2Zvcl9zcGx1bms__search4_1490708540.2847","| rest ""/services/licenser/slaves"" | table label warning_count active_pool_ids","KI1-V-S-9010","1490708540.628738",0,,,0,1490708540,1,search4,0,,,completed,"0.027000",,,,,,,,,,,,,,,,,,
"admin__admin_bGljZW5zZV9tb25pdG9yX2Zvcl9zcGx1bms__search1_1490708557.2848","search index=_internal source=*license_usage.log type=Usage   | eval MB = round(b/1024/1024,2) | timechart span=1h sum(MB) as totalMB | eval hour = strftime(_time,""%H"") |streamstats  sum(totalMB) as totalCumulativeMB reset_before=""(""hour==0"")"" | fields - totalMB , hour | predict totalCumulativeMB future_timespan=24","KI1-V-S-9010","1490708557.166550",0,"1490104800.000000000","1490708557.000000000",49626,1490708557,192,search1,49640,"1490104800.000000000","1490708557.000000000",completed,"1.541000",,,,,,,,,,,,,,,,,,
"admin__admin_bGljZW5zZV9tb25pdG9yX2Zvcl9zcGx1bms__search2_1490708557.2849","search index=_internal source=*license_usage.log type=Usage   | eval MB = round(b/1024/1024,2) | timechart span=1h sum(MB) as totalMB  | eval hour = strftime(_time,""%H"") |streamstats sum(totalMB) as totalCumulativeMB reset_before=""(""hour==0"")"" | fields - totalMB , hour | predict totalCumulativeMB future_timespan=24 | appendcols [ search index=_internal source=*license_usage.log type=Usage | dedup poolsz  | eval MB = round(b/1024/1024,2)  | stats sum(poolsz) as poolszMB | eval poolszMB = round(poolszMB/1024/1024,2) ] | streamstats  max(poolszMB) as ""licenseSizeInMB"" | fields - poolszMB","KI1-V-S-9010","1490708557.169711",0,"1490104800.000000000","1490708557.000000000",49626,1490708557,192,search2,49640,"1490104800.000000000","1490708557.000000000",completed,"2.600000",,,,,,,,,,,,,,,,,,
"admin__admin_bGljZW5zZV9tb25pdG9yX2Zvcl9zcGx1bms__search4_1490708557.2851","search index=_internal source=*license_usage.log type=Usage | eval MB = b/1024/1024 | timechart span=1d useother=0  sum(MB) by h | rename h as Host, sum(MB) as Megabyte | sort – Megabyte","KI1-V-S-9010","1490708557.171847",0,"1490104800.000000000","1490708557.000000000",49626,1490708557,8,search4,49640,"1490104800.000000000","1490708557.000000000",completed,"1.303000",,,,,,,,,,,,,,,,,,
"admin__admin_bGljZW5zZV9tb25pdG9yX2Zvcl9zcGx1bms__search5_1490708557.2852","search index=_internal source=*license_usage.log type=Usage | eval MB = b/1024/1024 | timechart span=1d useother=0  sum(MB) by st | rename st as SourceType, sum(MB) as Megabyte | sort – Megabyte","KI1-V-S-9010","1490708557.172863",0,"1490104800.000000000","1490708557.000000000",49626,1490708557,8,search5,49640,"1490104800.000000000","1490708557.000000000",completed,"1.387000",,,,,,,,,,,,,,,,,,
"rt_1490708623.2853","| metadata type=sourcetypes | search totalCount > 0","KI1-V-S-9010","1490708623.724003",1,,,0,1490708623,0,,0,,,canceled,"33.055000",,,,,,,,,,,,,,,,,,
"admin__admin_bGljZW5zZV9tb25pdG9yX2Zvcl9zcGx1bms__search1_1490708626.2854","| rest ""/services/licenser/licenses"" |search type=enterprise status=VALID | stats sum(quota) as quota | eval quota = ('quota'/1024/1024)","KI1-V-S-9010","1490708626.883464",0,"1490482800.000000000","1490708626.000000000",0,1490708626,1,search1,0,"1490482800.000000000","1490708626.000000000",completed,"0.039000",,,,,,,,,,,,,,,,,,
"admin__admin_bGljZW5zZV9tb25pdG9yX2Zvcl9zcGx1bms__search2_1490708626.2855","| rest ""/services/licenser/licenses"" |search type=enterprise | eval creation_time=strftime(creation_time,""%d-%m-%Y""), days_until_expiration=round((expiration_time-now())/86400) , expiration_time=strftime(expiration_time,""%d-%m-%Y"") ,quota = ('quota'/1024/1024), is_unlimited =if('is_unlimited'==0,""no"",""yes"") | table label creation_time status  expiration_time days_until_expiration quota is_unlimited max_violations window_period | rename creation_time as creation_date, expiration_time as expiration_date","KI1-V-S-9010","1490708626.885546",0,"1490482800.000000000","1490708626.000000000",0,1490708626,4,search2,0,"1490482800.000000000","1490708626.000000000",completed,"0.040000",,,,,,,,,,,,,,,,,,
"admin__admin_bGljZW5zZV9tb25pdG9yX2Zvcl9zcGx1bms__search3_1490708627.2856","| rest ""/services/licenser/pools"" | search stack_id=enterprise | eval effective_quota=effective_quota/1024/1024, used_bytes=used_bytes/1024/1024, percentage_used=((100/effective_quota)*used_bytes) | table description quota effective_quota used_bytes percentage_used","KI1-V-S-9010","1490708627.380455",0,,,0,1490708627,1,search3,0,,,completed,"0.030000",,,,,,,,,,,,,,,,,,
"admin__admin_bGljZW5zZV9tb25pdG9yX2Zvcl9zcGx1bms__search4_1490708627.2857","| rest ""/services/licenser/slaves"" | table label warning_count active_pool_ids","KI1-V-S-9010","1490708627.381000",0,,,0,1490708627,1,search4,0,,,completed,"0.026000",,,,,,,,,,,,,,,,,,
"admin__admin_bGljZW5zZV9tb25pdG9yX2Zvcl9zcGx1bms__search1_1493804310.188","| rest ""/services/licenser/licenses"" |search type=enterprise status=VALID | stats sum(quota) as quota | eval quota = ('quota'/1024/1024)","KI1-V-S-9010","1493804310.446329",0,"1493503200.000000000","1493804310.000000000",0,1493804310,1,search1,0,"1493503200.000000000","1493804310.000000000",completed,"0.025","UI:Dashboard:license_overview",,,,,,,,,,,,,,,,,
"admin__admin_bGljZW5zZV9tb25pdG9yX2Zvcl9zcGx1bms__search2_1493804310.189","| rest ""/services/licenser/licenses"" |search type=enterprise | eval creation_time=strftime(creation_time,""%d-%m-%Y""), days_until_expiration=round((expiration_time-now())/86400) , expiration_time=strftime(expiration_time,""%d-%m-%Y"") ,quota = ('quota'/1024/1024), is_unlimited =if('is_unlimited'==0,""no"",""yes"") | table label creation_time status  expiration_time days_until_expiration quota is_unlimited max_violations window_period | rename creation_time as creation_date, expiration_time as expiration_date","KI1-V-S-9010","1493804310.448521",0,"1493503200.000000000","1493804310.000000000",0,1493804310,1,search2,0,"1493503200.000000000","1493804310.000000000",completed,"0.038","UI:Dashboard:license_overview",,,,,,,,,,,,,,,,,
"admin__admin_bGljZW5zZV9tb25pdG9yX2Zvcl9zcGx1bms__search3_1493804310.190","| rest ""/services/licenser/pools"" | search stack_id=enterprise | eval effective_quota=effective_quota/1024/1024, used_bytes=used_bytes/1024/1024, percentage_used=((100/effective_quota)*used_bytes) | table description quota effective_quota used_bytes percentage_used","KI1-V-S-9010","1493804310.450427",0,,,0,1493804310,1,search3,0,,,completed,"0.034","UI:Dashboard:license_overview",,,,,,,,,,,,,,,,,
"admin__admin_bGljZW5zZV9tb25pdG9yX2Zvcl9zcGx1bms__search4_1493804310.191","| rest ""/services/licenser/slaves"" | table label warning_count active_pool_ids","KI1-V-S-9010","1493804310.451576",0,,,0,1493804310,1,search4,0,,,completed,"0.03","UI:Dashboard:license_overview",,,,,,,,,,,,,,,,,
"admin__admin_bGljZW5zZV9tb25pdG9yX2Zvcl9zcGx1bms__search1_1493804323.192","search index=_internal source=*license_usage.log type=Usage  
| eval MB = round(b/1024/1024,2) | timechart span=1h sum(MB) as totalMB | eval hour = strftime(_time,""%H"") |streamstats  sum(totalMB) as totalCumulativeMB reset_before=""(""hour==0"")"" | fields - totalMB , hour | predict totalCumulativeMB future_timespan=24","KI1-V-S-9010","1493804323.674692",0,"1493197200.000000000","1493804323.000000000",40112,1493804323,193,search1,40190,"1493197200.000000000","1493804323.000000000",completed,"1.367","UI:Dashboard:bluecue_review_for_licence_usage",,,,,,,,,,,,,,,,,
"admin__admin_bGljZW5zZV9tb25pdG9yX2Zvcl9zcGx1bms__search2_1493804323.193","search index=_internal source=*license_usage.log type=Usage  
| eval MB = round(b/1024/1024,2) | timechart span=1h sum(MB) as totalMB  | eval hour = strftime(_time,""%H"") |streamstats sum(totalMB) as totalCumulativeMB reset_before=""(""hour==0"")"" | fields - totalMB , hour | predict totalCumulativeMB future_timespan=24 | appendcols [
search index=_internal source=*license_usage.log type=Usage | dedup poolsz 
| eval MB = round(b/1024/1024,2) 
| stats sum(poolsz) as poolszMB
| eval poolszMB = round(poolszMB/1024/1024,2)
] | streamstats  max(poolszMB) as ""licenseSizeInMB"" | fields - poolszMB","KI1-V-S-9010","1493804323.676196",0,"1493197200.000000000","1493804323.000000000",40112,1493804323,193,search2,40192,"1493197200.000000000","1493804323.000000000",completed,"2.118","UI:Dashboard:bluecue_review_for_licence_usage",,,,,,,,,,,,,,,,,
"admin__admin_bGljZW5zZV9tb25pdG9yX2Zvcl9zcGx1bms__search3_1493804323.194","search index=_internal source=*license_usage.log type=Usage | eval MB = b/1024/1024 | timechart span=1d useother=0  sum(MB) by idx | rename idx as Index, sum(MB) as Megabyte | sort – Megabyte","KI1-V-S-9010","1493804323.677321",0,"1493197200.000000000","1493804323.000000000",40112,1493804323,8,search3,40190,"1493197200.000000000","1493804323.000000000",completed,"1.151","UI:Dashboard:bluecue_review_for_licence_usage",,,,,,,,,,,,,,,,,
"admin__admin_bGljZW5zZV9tb25pdG9yX2Zvcl9zcGx1bms__search4_1493804323.195","search index=_internal source=*license_usage.log type=Usage | eval MB = b/1024/1024 | timechart span=1d useother=0  sum(MB) by h | rename h as Host, sum(MB) as Megabyte | sort – Megabyte","KI1-V-S-9010","1493804323.678409",0,"1493197200.000000000","1493804323.000000000",40112,1493804323,8,search4,40190,"1493197200.000000000","1493804323.000000000",completed,"1.165","UI:Dashboard:bluecue_review_for_licence_usage",,,,,,,,,,,,,,,,,
"admin__admin_bGljZW5zZV9tb25pdG9yX2Zvcl9zcGx1bms__search5_1493804323.196","search index=_internal source=*license_usage.log type=Usage | eval MB = b/1024/1024 | timechart span=1d useother=0  sum(MB) by st | rename st as SourceType, sum(MB) as Megabyte | sort – Megabyte","KI1-V-S-9010","1493804323.679442",0,"1493197200.000000000","1493804323.000000000",40112,1493804323,8,search5,40190,"1493197200.000000000","1493804323.000000000",completed,"1.22","UI:Dashboard:bluecue_review_for_licence_usage",,,,,,,,,,,,,,,,,
"admin__admin_bGljZW5zZV9tb25pdG9yX2Zvcl9zcGx1bms__search1_1493804340.197","| rest ""/services/licenser/licenses"" |search type=enterprise status=VALID | stats sum(quota) as quota | eval quota = ('quota'/1024/1024)","KI1-V-S-9010","1493804340.298215",0,"1493503200.000000000","1493804340.000000000",0,1493804340,1,search1,0,"1493503200.000000000","1493804340.000000000",completed,"0.02","UI:Dashboard:license_overview",,,,,,,,,,,,,,,,,
"admin__admin_bGljZW5zZV9tb25pdG9yX2Zvcl9zcGx1bms__search2_1493804340.198","| rest ""/services/licenser/licenses"" |search type=enterprise | eval creation_time=strftime(creation_time,""%d-%m-%Y""), days_until_expiration=round((expiration_time-now())/86400) , expiration_time=strftime(expiration_time,""%d-%m-%Y"") ,quota = ('quota'/1024/1024), is_unlimited =if('is_unlimited'==0,""no"",""yes"") | table label creation_time status  expiration_time days_until_expiration quota is_unlimited max_violations window_period | rename creation_time as creation_date, expiration_time as expiration_date","KI1-V-S-9010","1493804340.300860",0,"1493503200.000000000","1493804340.000000000",0,1493804340,1,search2,0,"1493503200.000000000","1493804340.000000000",completed,"0.019","UI:Dashboard:license_overview",,,,,,,,,,,,,,,,,
"admin__admin_bGljZW5zZV9tb25pdG9yX2Zvcl9zcGx1bms__search3_1493804340.199","| rest ""/services/licenser/pools"" | search stack_id=enterprise | eval effective_quota=effective_quota/1024/1024, used_bytes=used_bytes/1024/1024, percentage_used=((100/effective_quota)*used_bytes) | table description quota effective_quota used_bytes percentage_used","KI1-V-S-9010","1493804340.303303",0,,,0,1493804340,1,search3,0,,,completed,"0.028","UI:Dashboard:license_overview",,,,,,,,,,,,,,,,,
"admin__admin_bGljZW5zZV9tb25pdG9yX2Zvcl9zcGx1bms__search4_1493804340.200","| rest ""/services/licenser/slaves"" | table label warning_count active_pool_ids","KI1-V-S-9010","1493804340.305556",0,,,0,1493804340,1,search4,0,,,completed,"0.014","UI:Dashboard:license_overview",,,,,,,,,,,,,,,,,
"admin__admin_bGljZW5zZV9tb25pdG9yX2Zvcl9zcGx1bms__search1_1493975785.78","| rest ""/services/licenser/licenses"" |search type=enterprise status=VALID | stats sum(quota) as quota | eval quota = ('quota'/1024/1024)","KI1-V-S-9010","1493975785.050969",0,"1493503200.000000000","1493975785.000000000",0,1493975785,1,search1,0,"1493503200.000000000","1493975785.000000000",completed,"0.037","UI:Dashboard:license_overview",,,,,,,,,,,,,,,,,
"admin__admin_bGljZW5zZV9tb25pdG9yX2Zvcl9zcGx1bms__search2_1493975785.79","| rest ""/services/licenser/licenses"" |search type=enterprise | eval creation_time=strftime(creation_time,""%d-%m-%Y""), days_until_expiration=round((expiration_time-now())/86400) , expiration_time=strftime(expiration_time,""%d-%m-%Y"") ,quota = ('quota'/1024/1024), is_unlimited =if('is_unlimited'==0,""no"",""yes"") | table label creation_time status  expiration_time days_until_expiration quota is_unlimited max_violations window_period | rename creation_time as creation_date, expiration_time as expiration_date","KI1-V-S-9010","1493975785.053273",0,"1493503200.000000000","1493975785.000000000",0,1493975785,1,search2,0,"1493503200.000000000","1493975785.000000000",completed,"0.037","UI:Dashboard:license_overview",,,,,,,,,,,,,,,,,
"admin__admin_bGljZW5zZV9tb25pdG9yX2Zvcl9zcGx1bms__search3_1493975785.80","| rest ""/services/licenser/pools"" | search stack_id=enterprise | eval effective_quota=effective_quota/1024/1024, used_bytes=used_bytes/1024/1024, percentage_used=((100/effective_quota)*used_bytes) | table description quota effective_quota used_bytes percentage_used","KI1-V-S-9010","1493975785.055027",0,,,0,1493975785,1,search3,0,,,completed,"0.034","UI:Dashboard:license_overview",,,,,,,,,,,,,,,,,
"admin__admin_bGljZW5zZV9tb25pdG9yX2Zvcl9zcGx1bms__search4_1493975785.81","| rest ""/services/licenser/slaves"" | table label warning_count active_pool_ids","KI1-V-S-9010","1493975785.056608",0,,,0,1493975785,1,search4,0,,,completed,"0.029","UI:Dashboard:license_overview",,,,,,,,,,,,,,,,,
"admin__admin_bGljZW5zZV9tb25pdG9yX2Zvcl9zcGx1bms__search1_1493975795.82","search index=_internal source=*license_usage.log type=Usage  
| eval MB = round(b/1024/1024,2) | timechart span=1h sum(MB) as totalMB | eval hour = strftime(_time,""%H"") |streamstats  sum(totalMB) as totalCumulativeMB reset_before=""(""hour==0"")"" | fields - totalMB , hour | predict totalCumulativeMB future_timespan=24","KI1-V-S-9010","1493975795.936261",0,"1493370000.000000000","1493975795.000000000",42716,1493975795,193,search1,42849,"1493370000.000000000","1493975795.000000000",completed,"1.613","UI:Dashboard:bluecue_review_for_licence_usage",,,,,,,,,,,,,,,,,
"admin__admin_bGljZW5zZV9tb25pdG9yX2Zvcl9zcGx1bms__search2_1493975795.83","search index=_internal source=*license_usage.log type=Usage  
| eval MB = round(b/1024/1024,2) | timechart span=1h sum(MB) as totalMB  | eval hour = strftime(_time,""%H"") |streamstats sum(totalMB) as totalCumulativeMB reset_before=""(""hour==0"")"" | fields - totalMB , hour | predict totalCumulativeMB future_timespan=24 | appendcols [
search index=_internal source=*license_usage.log type=Usage | dedup poolsz 
| eval MB = round(b/1024/1024,2) 
| stats sum(poolsz) as poolszMB
| eval poolszMB = round(poolszMB/1024/1024,2)
] | streamstats  max(poolszMB) as ""licenseSizeInMB"" | fields - poolszMB","KI1-V-S-9010","1493975795.938255",0,"1493370000.000000000","1493975795.000000000",42716,1493975795,193,search2,42851,"1493370000.000000000","1493975795.000000000",completed,"2.1550000000000002","UI:Dashboard:bluecue_review_for_licence_usage",,,,,,,,,,,,,,,,,
"admin__admin_bGljZW5zZV9tb25pdG9yX2Zvcl9zcGx1bms__search5_1493975795.86","search index=_internal source=*license_usage.log type=Usage | eval MB = b/1024/1024 | timechart span=1d useother=0  sum(MB) by st | rename st as SourceType, sum(MB) as Megabyte | sort – Megabyte","KI1-V-S-9010","1493975795.940698",0,"1493370000.000000000","1493975795.000000000",42716,1493975796,8,search5,42849,"1493370000.000000000","1493975795.000000000",completed,"1.2590000000000001","UI:Dashboard:bluecue_review_for_licence_usage",,,,,,,,,,,,,,,,,
"rt_md_1493975870.88","| metadata type=sourcetypes | search totalCount > 0","KI1-V-S-9010","1493975870.649334",1,,,0,1493975870,8,,0,,,completed,"1.053","UI:Search",,,,,,,,,,,,,,,,,
"1493975892.89","|inputlookup channel.csv","KI1-V-S-9010","1493975892.020154",0,"1493888400.000000000","1493975892.000000000",0,1493975892,0,,0,"1493888400.000000000","1493975892.000000000",completed,"0.01","UI:Search",,,,,,,,,,,,,,,,,
"1493975931.90","|inputlookup ChannelNameLookup.csv","KI1-V-S-9010","1493975931.236055",0,"1493888400.000000000","1493975931.000000000",0,1493975931,25,,0,"1493888400.000000000","1493975931.000000000",completed,"0.018000000000000002","UI:Search",,,,,,,,,,,,,,,,,
"1493975959.91","|inputlookup ChannelNameLookup.csv","KI1-V-S-9010","1493975959.959430",0,"1493888400.000000000","1493975959.000000000",0,1493975960,25,,0,"1493888400.000000000","1493975959.000000000",completed,"0.018000000000000002","UI:Search",,,,,,,,,,,,,,,,,
"admin__admin_bGljZW5zZV9tb25pdG9yX2Zvcl9zcGx1bms__search1_1493976934.115","| rest ""/services/licenser/licenses"" |search type=enterprise status=VALID | stats sum(quota) as quota | eval quota = ('quota'/1024/1024)","KI1-V-S-9010","1493976934.894314",0,"1493503200.000000000","1493976934.000000000",0,1493976934,1,search1,0,"1493503200.000000000","1493976934.000000000",completed,"0.027","UI:Dashboard:license_overview",,,,,,,,,,,,,,,,,
"admin__admin_bGljZW5zZV9tb25pdG9yX2Zvcl9zcGx1bms__search2_1493976934.116","| rest ""/services/licenser/licenses"" |search type=enterprise | eval creation_time=strftime(creation_time,""%d-%m-%Y""), days_until_expiration=round((expiration_time-now())/86400) , expiration_time=strftime(expiration_time,""%d-%m-%Y"") ,quota = ('quota'/1024/1024), is_unlimited =if('is_unlimited'==0,""no"",""yes"") | table label creation_time status  expiration_time days_until_expiration quota is_unlimited max_violations window_period | rename creation_time as creation_date, expiration_time as expiration_date","KI1-V-S-9010","1493976934.897083",0,"1493503200.000000000","1493976934.000000000",0,1493976934,1,search2,0,"1493503200.000000000","1493976934.000000000",completed,"0.038","UI:Dashboard:license_overview",,,,,,,,,,,,,,,,,
"admin__admin_bGljZW5zZV9tb25pdG9yX2Zvcl9zcGx1bms__search3_1493976934.117","| rest ""/services/licenser/pools"" | search stack_id=enterprise | eval effective_quota=effective_quota/1024/1024, used_bytes=used_bytes/1024/1024, percentage_used=((100/effective_quota)*used_bytes) | table description quota effective_quota used_bytes percentage_used","KI1-V-S-9010","1493976934.898942",0,,,0,1493976934,1,search3,0,,,completed,"0.038","UI:Dashboard:license_overview",,,,,,,,,,,,,,,,,
"admin__admin_bGljZW5zZV9tb25pdG9yX2Zvcl9zcGx1bms__search4_1493976934.118","| rest ""/services/licenser/slaves"" | table label warning_count active_pool_ids","KI1-V-S-9010","1493976934.899793",0,,,0,1493976934,1,search4,0,,,completed,"0.033","UI:Dashboard:license_overview",,,,,,,,,,,,,,,,,
"admin__admin_bGljZW5zZV9tb25pdG9yX2Zvcl9zcGx1bms__search1_1494234386.83","| rest ""/services/licenser/licenses"" |search type=enterprise status=VALID | stats sum(quota) as quota | eval quota = ('quota'/1024/1024)","KI1-V-S-9010","1494234386.691627",0,"1494108000.000000000","1494234386.000000000",0,1494234386,1,search1,0,"1494108000.000000000","1494234386.000000000",completed,"0.036000000000000004","UI:Dashboard:license_overview",,,,,,,,,,,,,,,,,
"admin__admin_bGljZW5zZV9tb25pdG9yX2Zvcl9zcGx1bms__search2_1494234386.84","| rest ""/services/licenser/licenses"" |search type=enterprise | eval creation_time=strftime(creation_time,""%d-%m-%Y""), days_until_expiration=round((expiration_time-now())/86400) , expiration_time=strftime(expiration_time,""%d-%m-%Y"") ,quota = ('quota'/1024/1024), is_unlimited =if('is_unlimited'==0,""no"",""yes"") | table label creation_time status  expiration_time days_until_expiration quota is_unlimited max_violations window_period | rename creation_time as creation_date, expiration_time as expiration_date","KI1-V-S-9010","1494234386.694796",0,"1494108000.000000000","1494234386.000000000",0,1494234386,1,search2,0,"1494108000.000000000","1494234386.000000000",completed,"0.04","UI:Dashboard:license_overview",,,,,,,,,,,,,,,,,
"admin__admin_bGljZW5zZV9tb25pdG9yX2Zvcl9zcGx1bms__search3_1494234386.85","| rest ""/services/licenser/pools"" | search stack_id=enterprise | eval effective_quota=effective_quota/1024/1024, used_bytes=used_bytes/1024/1024, percentage_used=((100/effective_quota)*used_bytes) | table description quota effective_quota used_bytes percentage_used","KI1-V-S-9010","1494234386.697749",0,,,0,1494234386,1,search3,0,,,completed,"0.035","UI:Dashboard:license_overview",,,,,,,,,,,,,,,,,
"admin__admin_bGljZW5zZV9tb25pdG9yX2Zvcl9zcGx1bms__search4_1494234386.86","| rest ""/services/licenser/slaves"" | table label warning_count active_pool_ids","KI1-V-S-9010","1494234386.699377",0,,,0,1494234386,1,search4,0,,,completed,"0.033","UI:Dashboard:license_overview",,,,,,,,,,,,,,,,,
"admin__admin_bGljZW5zZV9tb25pdG9yX2Zvcl9zcGx1bms__search1_1494247133.1569","| rest ""/services/licenser/licenses"" |search type=enterprise status=VALID | stats sum(quota) as quota | eval quota = ('quota'/1024/1024)","KI1-V-S-9010","1494247133.552959",0,"1494108000.000000000","1494247133.000000000",0,1494247133,1,search1,0,"1494108000.000000000","1494247133.000000000",completed,"0.038","UI:Dashboard:license_overview",,,,,,,,,,,,,,,,,
"admin__admin_bGljZW5zZV9tb25pdG9yX2Zvcl9zcGx1bms__search2_1494247133.1570","| rest ""/services/licenser/licenses"" |search type=enterprise | eval creation_time=strftime(creation_time,""%d-%m-%Y""), days_until_expiration=round((expiration_time-now())/86400) , expiration_time=strftime(expiration_time,""%d-%m-%Y"") ,quota = ('quota'/1024/1024), is_unlimited =if('is_unlimited'==0,""no"",""yes"") | table label creation_time status  expiration_time days_until_expiration quota is_unlimited max_violations window_period | rename creation_time as creation_date, expiration_time as expiration_date","KI1-V-S-9010","1494247133.564180",0,"1494108000.000000000","1494247133.000000000",0,1494247133,1,search2,0,"1494108000.000000000","1494247133.000000000",completed,"0.041","UI:Dashboard:license_overview",,,,,,,,,,,,,,,,,
"admin__admin_bGljZW5zZV9tb25pdG9yX2Zvcl9zcGx1bms__search3_1494247133.1571","| rest ""/services/licenser/pools"" | search stack_id=enterprise | eval effective_quota=effective_quota/1024/1024, used_bytes=used_bytes/1024/1024, percentage_used=((100/effective_quota)*used_bytes) | table description quota effective_quota used_bytes percentage_used","KI1-V-S-9010","1494247133.576352",0,,,0,1494247133,1,search3,0,,,completed,"0.033","UI:Dashboard:license_overview",,,,,,,,,,,,,,,,,
"admin__admin_bGljZW5zZV9tb25pdG9yX2Zvcl9zcGx1bms__search4_1494247133.1572","| rest ""/services/licenser/slaves"" | table label warning_count active_pool_ids","KI1-V-S-9010","1494247133.590650",0,,,0,1494247133,1,search4,0,,,completed,"0.032","UI:Dashboard:license_overview",,,,,,,,,,,,,,,,,
"admin__admin_bGljZW5zZV9tb25pdG9yX2Zvcl9zcGx1bms__search4_1494247145.1575","search index=_internal source=*license_usage.log type=Usage | eval MB = b/1024/1024 | timechart span=1d useother=0  sum(MB) by h | rename h as Host, sum(MB) as Megabyte | sort – Megabyte","KI1-V-S-9010","1494247145.870190",0,"1493640000.000000000","1494247145.000000000",62679,1494247145,8,search4,62812,"1493640000.000000000","1494247145.000000000",completed,"1.6340000000000001","UI:Dashboard:bluecue_review_for_licence_usage",,,,,,,,,,,,,,,,,
"admin__admin_bGljZW5zZV9tb25pdG9yX2Zvcl9zcGx1bms__search5_1494247145.1576","search index=_internal source=*license_usage.log type=Usage | eval MB = b/1024/1024 | timechart span=1d useother=0  sum(MB) by st | rename st as SourceType, sum(MB) as Megabyte | sort – Megabyte","KI1-V-S-9010","1494247145.872524",0,"1493640000.000000000","1494247145.000000000",62679,1494247145,8,search5,62812,"1493640000.000000000","1494247145.000000000",completed,"1.551","UI:Dashboard:bluecue_review_for_licence_usage",,,,,,,,,,,,,,,,,
"admin__admin_bGljZW5zZV9tb25pdG9yX2Zvcl9zcGx1bms__search3_1494247146.1577","search index=_internal source=*license_usage.log type=Usage | eval MB = b/1024/1024 | timechart span=1d useother=0  sum(MB) by idx | rename idx as Index, sum(MB) as Megabyte | sort – Megabyte","KI1-V-S-9010","1494247146.157179",0,"1493640000.000000000","1494247146.000000000",62679,1494247146,8,search3,62812,"1493640000.000000000","1494247146.000000000",completed,"1.615","UI:Dashboard:bluecue_review_for_licence_usage",,,,,,,,,,,,,,,,,
"admin__admin_bGljZW5zZV9tb25pdG9yX2Zvcl9zcGx1bms__search1_1494247146.1578","search index=_internal source=*license_usage.log type=Usage  
| eval MB = round(b/1024/1024,2) | timechart span=1h sum(MB) as totalMB | eval hour = strftime(_time,""%H"") |streamstats  sum(totalMB) as totalCumulativeMB reset_before=""(""hour==0"")"" | fields - totalMB , hour | predict totalCumulativeMB future_timespan=24","KI1-V-S-9010","1494247146.249576",0,"1493640000.000000000","1494247146.000000000",62679,1494247146,193,search1,62812,"1493640000.000000000","1494247146.000000000",completed,"1.7770000000000001","UI:Dashboard:bluecue_review_for_licence_usage",,,,,,,,,,,,,,,,,
"admin__admin_bGljZW5zZV9tb25pdG9yX2Zvcl9zcGx1bms__search2_1494247146.1579","search index=_internal source=*license_usage.log type=Usage  
| eval MB = round(b/1024/1024,2) | timechart span=1h sum(MB) as totalMB  | eval hour = strftime(_time,""%H"") |streamstats sum(totalMB) as totalCumulativeMB reset_before=""(""hour==0"")"" | fields - totalMB , hour | predict totalCumulativeMB future_timespan=24 | appendcols [
search index=_internal source=*license_usage.log type=Usage | dedup poolsz 
| eval MB = round(b/1024/1024,2) 
| stats sum(poolsz) as poolszMB
| eval poolszMB = round(poolszMB/1024/1024,2)
] | streamstats  max(poolszMB) as ""licenseSizeInMB"" | fields - poolszMB","KI1-V-S-9010","1494247146.263065",0,"1493640000.000000000","1494247146.000000000",62679,1494247146,193,search2,62812,"1493640000.000000000","1494247146.000000000",completed,"2.988","UI:Dashboard:bluecue_review_for_licence_usage",,,,,,,,,,,,,,,,,
"admin__admin_bGljZW5zZV9tb25pdG9yX2Zvcl9zcGx1bms__search1_1497017099.2676","| rest ""/services/licenser/licenses"" |search type=enterprise status=VALID | stats sum(quota) as quota | eval quota = ('quota'/1024/1024)","KI1-V-S-9010","1497017099.253224",0,"1496527200.000000000","1497017099.000000000",0,1497017099,1,search1,0,"1496527200.000000000","1497017099.000000000",completed,"0.034","UI:Dashboard:license_overview",,,,,,,,,,,,,,,,,
"admin__admin_bGljZW5zZV9tb25pdG9yX2Zvcl9zcGx1bms__search4_1497017099.2677","| rest ""/services/licenser/slaves"" | table label warning_count active_pool_ids","KI1-V-S-9010","1497017099.255448",0,,,0,1497017099,1,search4,0,,,completed,"0.026000000000000002","UI:Dashboard:license_overview",,,,,,,,,,,,,,,,,
"admin__admin_bGljZW5zZV9tb25pdG9yX2Zvcl9zcGx1bms__search3_1497017099.2679","| rest ""/services/licenser/pools"" | search stack_id=enterprise | eval effective_quota=effective_quota/1024/1024, used_bytes=used_bytes/1024/1024, percentage_used=((100/effective_quota)*used_bytes) | table description quota effective_quota used_bytes percentage_used","KI1-V-S-9010","1497017099.257674",0,,,0,1497017099,1,search3,0,,,completed,"0.043000000000000003","UI:Dashboard:license_overview",,,,,,,,,,,,,,,,,
"admin__admin_bGljZW5zZV9tb25pdG9yX2Zvcl9zcGx1bms__search1_1497017113.2685","search index=_internal source=*license_usage.log type=Usage  
| eval MB = round(b/1024/1024,2) | timechart span=1h sum(MB) as totalMB | eval hour = strftime(_time,""%H"") |streamstats  sum(totalMB) as totalCumulativeMB reset_before=""(""hour==0"")"" | fields - totalMB , hour | predict totalCumulativeMB future_timespan=24","KI1-V-S-9010","1497017113.504480",0,"1496412000.000000000","1497017113.000000000",62552,1497017113,193,search1,62627,"1496412000.000000000","1497017113.000000000",completed,"1.581","UI:Dashboard:bluecue_review_for_licence_usage",,,,,,,,,,,,,,,,,
"admin__admin_bGljZW5zZV9tb25pdG9yX2Zvcl9zcGx1bms__search3_1497017113.2686","search index=_internal source=*license_usage.log type=Usage | eval MB = b/1024/1024 | timechart span=1d useother=0  sum(MB) by idx | rename idx as Index, sum(MB) as Megabyte | sort – Megabyte","KI1-V-S-9010","1497017113.506695",0,"1496412000.000000000","1497017113.000000000",62552,1497017113,8,search3,62627,"1496412000.000000000","1497017113.000000000",completed,"1.373","UI:Dashboard:bluecue_review_for_licence_usage",,,,,,,,,,,,,,,,,
"admin__admin_bGljZW5zZV9tb25pdG9yX2Zvcl9zcGx1bms__search2_1497017113.2687","search index=_internal source=*license_usage.log type=Usage  
| eval MB = round(b/1024/1024,2) | timechart span=1h sum(MB) as totalMB  | eval hour = strftime(_time,""%H"") |streamstats sum(totalMB) as totalCumulativeMB reset_before=""(""hour==0"")"" | fields - totalMB , hour | predict totalCumulativeMB future_timespan=24 | appendcols [
search index=_internal source=*license_usage.log type=Usage | dedup poolsz 
| eval MB = round(b/1024/1024,2) 
| stats sum(poolsz) as poolszMB
| eval poolszMB = round(poolszMB/1024/1024,2)
] | streamstats  max(poolszMB) as ""licenseSizeInMB"" | fields - poolszMB","KI1-V-S-9010","1497017113.509192",0,"1496412000.000000000","1497017113.000000000",62552,1497017113,193,search2,62629,"1496412000.000000000","1497017113.000000000",completed,"2.73","UI:Dashboard:bluecue_review_for_licence_usage",,,,,,,,,,,,,,,,,
"admin__admin_bGljZW5zZV9tb25pdG9yX2Zvcl9zcGx1bms__search4_1497017113.2688","search index=_internal source=*license_usage.log type=Usage | eval MB = b/1024/1024 | timechart span=1d useother=0  sum(MB) by h | rename h as Host, sum(MB) as Megabyte | sort – Megabyte","KI1-V-S-9010","1497017113.527594",0,"1496412000.000000000","1497017113.000000000",62552,1497017113,8,search4,62627,"1496412000.000000000","1497017113.000000000",completed,"1.46","UI:Dashboard:bluecue_review_for_licence_usage",,,,,,,,,,,,,,,,,
"admin__admin_bGljZW5zZV9tb25pdG9yX2Zvcl9zcGx1bms__search5_1497017113.2689","search index=_internal source=*license_usage.log type=Usage | eval MB = b/1024/1024 | timechart span=1d useother=0  sum(MB) by st | rename st as SourceType, sum(MB) as Megabyte | sort – Megabyte","KI1-V-S-9010","1497017113.529196",0,"1496412000.000000000","1497017113.000000000",62552,1497017113,8,search5,62627,"1496412000.000000000","1497017113.000000000",completed,"1.3940000000000001","UI:Dashboard:bluecue_review_for_licence_usage",,,,,,,,,,,,,,,,,
