{
    "modelName": "REGIOCAST_ICECAST",
    "displayName": "REGIOCAST_ICECAST",
    "description": "",
    "objectSummary": {
        "Event-Based": 1,
        "Transaction-Based": 0,
        "Search-Based": 0
    },
    "objects": [
        {
            "objectName": "ICECAST",
            "displayName": "ICECAST",
            "parentName": "BaseEvent",
            "fields": [
                {
                    "fieldName": "aggregator",
                    "owner": "ICECAST",
                    "type": "string",
                    "fieldSearch": "",
                    "required": false,
                    "multivalue": false,
                    "hidden": false,
                    "editable": true,
                    "displayName": "aggregator",
                    "comment": ""
                },
                {
                    "fieldName": "amsparams",
                    "owner": "ICECAST",
                    "type": "string",
                    "fieldSearch": "",
                    "required": false,
                    "multivalue": false,
                    "hidden": false,
                    "editable": true,
                    "displayName": "amsparams",
                    "comment": ""
                },
                {
                    "fieldName": "awparams",
                    "owner": "ICECAST",
                    "type": "string",
                    "fieldSearch": "",
                    "required": false,
                    "multivalue": false,
                    "hidden": false,
                    "editable": true,
                    "displayName": "awparams",
                    "comment": ""
                },
                {
                    "fieldName": "brand",
                    "owner": "ICECAST",
                    "type": "string",
                    "fieldSearch": "",
                    "required": false,
                    "multivalue": false,
                    "hidden": false,
                    "editable": true,
                    "displayName": "brand",
                    "comment": ""
                },
                {
                    "fieldName": "byteCount",
                    "owner": "ICECAST",
                    "type": "number",
                    "fieldSearch": "",
                    "required": false,
                    "multivalue": false,
                    "hidden": false,
                    "editable": true,
                    "displayName": "byteCount",
                    "comment": ""
                },
                {
                    "fieldName": "channel",
                    "owner": "ICECAST",
                    "type": "string",
                    "fieldSearch": "",
                    "required": false,
                    "multivalue": false,
                    "hidden": false,
                    "editable": true,
                    "displayName": "channel",
                    "comment": ""
                },
                {
                    "fieldName": "channel2",
                    "owner": "ICECAST",
                    "type": "string",
                    "fieldSearch": "",
                    "required": false,
                    "multivalue": false,
                    "hidden": false,
                    "editable": true,
                    "displayName": "channel2",
                    "comment": ""
                },
                {
                    "fieldName": "context",
                    "owner": "ICECAST",
                    "type": "string",
                    "fieldSearch": "",
                    "required": false,
                    "multivalue": false,
                    "hidden": false,
                    "editable": true,
                    "displayName": "context",
                    "comment": ""
                },
                {
                    "fieldName": "date_hour",
                    "owner": "ICECAST",
                    "type": "number",
                    "fieldSearch": "",
                    "required": false,
                    "multivalue": false,
                    "hidden": false,
                    "editable": true,
                    "displayName": "date_hour",
                    "comment": ""
                },
                {
                    "fieldName": "date_mday",
                    "owner": "ICECAST",
                    "type": "number",
                    "fieldSearch": "",
                    "required": false,
                    "multivalue": false,
                    "hidden": false,
                    "editable": true,
                    "displayName": "date_mday",
                    "comment": ""
                },
                {
                    "fieldName": "date_minute",
                    "owner": "ICECAST",
                    "type": "number",
                    "fieldSearch": "",
                    "required": false,
                    "multivalue": false,
                    "hidden": false,
                    "editable": true,
                    "displayName": "date_minute",
                    "comment": ""
                },
                {
                    "fieldName": "date_month",
                    "owner": "ICECAST",
                    "type": "string",
                    "fieldSearch": "",
                    "required": false,
                    "multivalue": false,
                    "hidden": false,
                    "editable": true,
                    "displayName": "date_month",
                    "comment": ""
                },
                {
                    "fieldName": "date_second",
                    "owner": "ICECAST",
                    "type": "number",
                    "fieldSearch": "",
                    "required": false,
                    "multivalue": false,
                    "hidden": false,
                    "editable": true,
                    "displayName": "date_second",
                    "comment": ""
                },
                {
                    "fieldName": "date_wday",
                    "owner": "ICECAST",
                    "type": "string",
                    "fieldSearch": "",
                    "required": false,
                    "multivalue": false,
                    "hidden": false,
                    "editable": true,
                    "displayName": "date_wday",
                    "comment": ""
                },
                {
                    "fieldName": "date_year",
                    "owner": "ICECAST",
                    "type": "number",
                    "fieldSearch": "",
                    "required": false,
                    "multivalue": false,
                    "hidden": false,
                    "editable": true,
                    "displayName": "date_year",
                    "comment": ""
                },
                {
                    "fieldName": "date_zone",
                    "owner": "ICECAST",
                    "type": "number",
                    "fieldSearch": "",
                    "required": false,
                    "multivalue": false,
                    "hidden": false,
                    "editable": true,
                    "displayName": "date_zone",
                    "comment": ""
                },
                {
                    "fieldName": "duration",
                    "owner": "ICECAST",
                    "type": "number",
                    "fieldSearch": "",
                    "required": false,
                    "multivalue": false,
                    "hidden": false,
                    "editable": true,
                    "displayName": "duration",
                    "comment": ""
                },
                {
                    "fieldName": "eventtype",
                    "owner": "ICECAST",
                    "type": "string",
                    "fieldSearch": "",
                    "required": false,
                    "multivalue": false,
                    "hidden": false,
                    "editable": true,
                    "displayName": "eventtype",
                    "comment": ""
                },
                {
                    "fieldName": "format",
                    "owner": "ICECAST",
                    "type": "string",
                    "fieldSearch": "",
                    "required": false,
                    "multivalue": false,
                    "hidden": false,
                    "editable": true,
                    "displayName": "format",
                    "comment": ""
                },
                {
                    "fieldName": "format2",
                    "owner": "ICECAST",
                    "type": "string",
                    "fieldSearch": "",
                    "required": false,
                    "multivalue": false,
                    "hidden": false,
                    "editable": true,
                    "displayName": "format2",
                    "comment": ""
                },
                {
                    "fieldName": "httpStatus",
                    "owner": "ICECAST",
                    "type": "number",
                    "fieldSearch": "",
                    "required": false,
                    "multivalue": false,
                    "hidden": false,
                    "editable": true,
                    "displayName": "httpStatus",
                    "comment": ""
                },
                {
                    "fieldName": "index",
                    "owner": "ICECAST",
                    "type": "string",
                    "fieldSearch": "",
                    "required": false,
                    "multivalue": false,
                    "hidden": false,
                    "editable": true,
                    "displayName": "index",
                    "comment": ""
                },
                {
                    "fieldName": "ip",
                    "owner": "ICECAST",
                    "type": "ipv4",
                    "fieldSearch": "",
                    "required": false,
                    "multivalue": false,
                    "hidden": false,
                    "editable": true,
                    "displayName": "ip",
                    "comment": ""
                },
                {
                    "fieldName": "isAdmin",
                    "owner": "ICECAST",
                    "type": "string",
                    "fieldSearch": "",
                    "required": false,
                    "multivalue": false,
                    "hidden": false,
                    "editable": true,
                    "displayName": "isAdmin",
                    "comment": ""
                },
                {
                    "fieldName": "linecount",
                    "owner": "ICECAST",
                    "type": "number",
                    "fieldSearch": "",
                    "required": false,
                    "multivalue": false,
                    "hidden": false,
                    "editable": true,
                    "displayName": "linecount",
                    "comment": ""
                },
                {
                    "fieldName": "mount",
                    "owner": "ICECAST",
                    "type": "string",
                    "fieldSearch": "",
                    "required": false,
                    "multivalue": false,
                    "hidden": false,
                    "editable": true,
                    "displayName": "mount",
                    "comment": ""
                },
                {
                    "fieldName": "msmp3ext",
                    "owner": "ICECAST",
                    "type": "string",
                    "fieldSearch": "",
                    "required": false,
                    "multivalue": false,
                    "hidden": false,
                    "editable": true,
                    "displayName": "msmp3ext",
                    "comment": ""
                },
                {
                    "fieldName": "platform",
                    "owner": "ICECAST",
                    "type": "string",
                    "fieldSearch": "",
                    "required": false,
                    "multivalue": false,
                    "hidden": false,
                    "editable": true,
                    "displayName": "platform",
                    "comment": ""
                },
                {
                    "fieldName": "punct",
                    "owner": "ICECAST",
                    "type": "string",
                    "fieldSearch": "",
                    "required": false,
                    "multivalue": false,
                    "hidden": false,
                    "editable": true,
                    "displayName": "punct",
                    "comment": ""
                },
                {
                    "fieldName": "quality",
                    "owner": "ICECAST",
                    "type": "string",
                    "fieldSearch": "",
                    "required": false,
                    "multivalue": false,
                    "hidden": false,
                    "editable": true,
                    "displayName": "quality",
                    "comment": ""
                },
                {
                    "fieldName": "r",
                    "owner": "ICECAST",
                    "type": "string",
                    "fieldSearch": "",
                    "required": false,
                    "multivalue": false,
                    "hidden": false,
                    "editable": true,
                    "displayName": "r",
                    "comment": ""
                },
                {
                    "fieldName": "referrer",
                    "owner": "ICECAST",
                    "type": "string",
                    "fieldSearch": "",
                    "required": false,
                    "multivalue": false,
                    "hidden": false,
                    "editable": true,
                    "displayName": "referrer",
                    "comment": ""
                },
                {
                    "fieldName": "restCall",
                    "owner": "ICECAST",
                    "type": "string",
                    "fieldSearch": "",
                    "required": false,
                    "multivalue": false,
                    "hidden": false,
                    "editable": true,
                    "displayName": "restCall",
                    "comment": ""
                },
                {
                    "fieldName": "sABC",
                    "owner": "ICECAST",
                    "type": "string",
                    "fieldSearch": "",
                    "required": false,
                    "multivalue": false,
                    "hidden": false,
                    "editable": true,
                    "displayName": "sABC",
                    "comment": ""
                },
                {
                    "fieldName": "sid",
                    "owner": "ICECAST",
                    "type": "number",
                    "fieldSearch": "",
                    "required": false,
                    "multivalue": false,
                    "hidden": false,
                    "editable": true,
                    "displayName": "sid",
                    "comment": ""
                },
                {
                    "fieldName": "splunk_server",
                    "owner": "ICECAST",
                    "type": "string",
                    "fieldSearch": "",
                    "required": false,
                    "multivalue": false,
                    "hidden": false,
                    "editable": true,
                    "displayName": "splunk_server",
                    "comment": ""
                },
                {
                    "fieldName": "splunk_server_group",
                    "owner": "ICECAST",
                    "type": "string",
                    "fieldSearch": "",
                    "required": false,
                    "multivalue": false,
                    "hidden": false,
                    "editable": true,
                    "displayName": "splunk_server_group",
                    "comment": ""
                },
                {
                    "fieldName": "startChannel",
                    "owner": "ICECAST",
                    "type": "number",
                    "fieldSearch": "",
                    "required": false,
                    "multivalue": false,
                    "hidden": false,
                    "editable": true,
                    "displayName": "startChannel",
                    "comment": ""
                },
                {
                    "fieldName": "time",
                    "owner": "ICECAST",
                    "type": "string",
                    "fieldSearch": "",
                    "required": false,
                    "multivalue": false,
                    "hidden": false,
                    "editable": true,
                    "displayName": "time",
                    "comment": ""
                },
                {
                    "fieldName": "timeendpos",
                    "owner": "ICECAST",
                    "type": "number",
                    "fieldSearch": "",
                    "required": false,
                    "multivalue": false,
                    "hidden": false,
                    "editable": true,
                    "displayName": "timeendpos",
                    "comment": ""
                },
                {
                    "fieldName": "timestartpos",
                    "owner": "ICECAST",
                    "type": "number",
                    "fieldSearch": "",
                    "required": false,
                    "multivalue": false,
                    "hidden": false,
                    "editable": true,
                    "displayName": "timestartpos",
                    "comment": ""
                },
                {
                    "fieldName": "token",
                    "owner": "ICECAST",
                    "type": "string",
                    "fieldSearch": "",
                    "required": false,
                    "multivalue": false,
                    "hidden": false,
                    "editable": true,
                    "displayName": "token",
                    "comment": ""
                },
                {
                    "fieldName": "unixEnd",
                    "owner": "ICECAST",
                    "type": "number",
                    "fieldSearch": "",
                    "required": false,
                    "multivalue": false,
                    "hidden": false,
                    "editable": true,
                    "displayName": "unixEnd",
                    "comment": ""
                },
                {
                    "fieldName": "unixStart",
                    "owner": "ICECAST",
                    "type": "number",
                    "fieldSearch": "",
                    "required": false,
                    "multivalue": false,
                    "hidden": false,
                    "editable": true,
                    "displayName": "unixStart",
                    "comment": ""
                },
                {
                    "fieldName": "unnamed",
                    "owner": "ICECAST",
                    "type": "string",
                    "fieldSearch": "",
                    "required": false,
                    "multivalue": false,
                    "hidden": false,
                    "editable": true,
                    "displayName": "unnamed",
                    "comment": ""
                },
                {
                    "fieldName": "v",
                    "owner": "ICECAST",
                    "type": "string",
                    "fieldSearch": "",
                    "required": false,
                    "multivalue": false,
                    "hidden": false,
                    "editable": true,
                    "displayName": "v",
                    "comment": ""
                },
                {
                    "fieldName": "URL",
                    "owner": "ICECAST",
                    "type": "string",
                    "fieldSearch": "",
                    "required": false,
                    "multivalue": false,
                    "hidden": false,
                    "editable": true,
                    "displayName": "URL",
                    "comment": ""
                },
                {
                    "fieldName": "_time",
                    "owner": "BaseEvent",
                    "type": "timestamp",
                    "fieldSearch": "",
                    "required": false,
                    "multivalue": false,
                    "hidden": false,
                    "editable": true,
                    "displayName": "_time",
                    "comment": ""
                },
                {
                    "fieldName": "host",
                    "owner": "BaseEvent",
                    "type": "string",
                    "fieldSearch": "",
                    "required": false,
                    "multivalue": false,
                    "hidden": false,
                    "editable": true,
                    "displayName": "host",
                    "comment": ""
                },
                {
                    "fieldName": "source",
                    "owner": "BaseEvent",
                    "type": "string",
                    "fieldSearch": "",
                    "required": false,
                    "multivalue": false,
                    "hidden": false,
                    "editable": true,
                    "displayName": "source",
                    "comment": ""
                },
                {
                    "fieldName": "sourcetype",
                    "owner": "BaseEvent",
                    "type": "string",
                    "fieldSearch": "",
                    "required": false,
                    "multivalue": false,
                    "hidden": false,
                    "editable": true,
                    "displayName": "sourcetype",
                    "comment": ""
                }
            ],
            "calculations": [
                {
                    "outputFields": [
                        {
                            "fieldName": "Brand",
                            "owner": "ICECAST",
                            "type": "string",
                            "fieldSearch": "",
                            "required": false,
                            "multivalue": false,
                            "hidden": false,
                            "editable": true,
                            "displayName": "Brand",
                            "comment": "",
                            "lookupOutputFieldName": "Brand"
                        },
                        {
                            "fieldName": "Channel",
                            "owner": "ICECAST",
                            "type": "string",
                            "fieldSearch": "",
                            "required": false,
                            "multivalue": false,
                            "hidden": false,
                            "editable": true,
                            "displayName": "Channel",
                            "comment": "",
                            "lookupOutputFieldName": "Channel"
                        },
                        {
                            "fieldName": "Format",
                            "owner": "ICECAST",
                            "type": "string",
                            "fieldSearch": "",
                            "required": false,
                            "multivalue": false,
                            "hidden": false,
                            "editable": true,
                            "displayName": "Format",
                            "comment": "",
                            "lookupOutputFieldName": "Format"
                        },
                        {
                            "fieldName": "Quality",
                            "owner": "ICECAST",
                            "type": "string",
                            "fieldSearch": "",
                            "required": false,
                            "multivalue": false,
                            "hidden": false,
                            "editable": true,
                            "displayName": "Quality",
                            "comment": "",
                            "lookupOutputFieldName": "Quality"
                        }
                    ],
                    "calculationType": "Lookup",
                    "lookupName": "streamURL",
                    "comment": "",
                    "lookupInputs": [
                        {
                            "inputField": "URL",
                            "lookupField": "URL"
                        }
                    ],
                    "owner": "ICECAST",
                    "calculationID": "65swjej8v9dh1vw7tpg6g06bt9",
                    "editable": true
                },
                {
                    "outputFields": [
                        {
                            "fieldName": "listenerTimeSegment",
                            "owner": "ICECAST",
                            "type": "string",
                            "fieldSearch": "",
                            "required": false,
                            "multivalue": false,
                            "hidden": false,
                            "editable": true,
                            "displayName": "listenerTimeSegment",
                            "comment": ""
                        }
                    ],
                    "calculationID": "owtqwz7rwg",
                    "owner": "ICECAST",
                    "editable": true,
                    "comment": "",
                    "calculationType": "Eval",
                    "expression": "case( duration < 300, \"< 5 min\",  duration  <  1800,\"5-30 min\", duration < 3600, \"30-60 min\", duration < 7200, \"60-120 min\", duration > 7200, \"120+ min\")"
                },
                {
                    "outputFields": [
                        {
                            "fieldName": "bounce",
                            "owner": "ICECAST",
                            "type": "number",
                            "fieldSearch": "",
                            "required": false,
                            "multivalue": false,
                            "hidden": false,
                            "editable": true,
                            "displayName": "bounce",
                            "comment": ""
                        }
                    ],
                    "calculationID": "lgw2eso1rnc",
                    "owner": "ICECAST",
                    "editable": true,
                    "comment": "",
                    "calculationType": "Eval",
                    "expression": "if(duration<60,1,0)"
                },
                {
                    "outputFields": [
                        {
                            "fieldName": "qualBounce",
                            "owner": "ICECAST",
                            "type": "number",
                            "fieldSearch": "",
                            "required": false,
                            "multivalue": false,
                            "hidden": false,
                            "editable": true,
                            "displayName": "qualBounce",
                            "comment": ""
                        }
                    ],
                    "calculationID": "l0sbrxd8uw9",
                    "owner": "ICECAST",
                    "editable": true,
                    "comment": "",
                    "calculationType": "Eval",
                    "expression": "if(duration<4,1,0)"
                },
                {
                    "outputFields": [
                        {
                            "fieldName": "ip_lon",
                            "owner": "ICECAST",
                            "type": "number",
                            "fieldSearch": "ip_lon=*",
                            "required": true,
                            "multivalue": false,
                            "hidden": false,
                            "editable": true,
                            "displayName": "lon",
                            "comment": "",
                            "lookupOutputFieldName": "lon"
                        },
                        {
                            "fieldName": "ip_lat",
                            "owner": "ICECAST",
                            "type": "number",
                            "fieldSearch": "ip_lat=*",
                            "required": true,
                            "multivalue": false,
                            "hidden": false,
                            "editable": true,
                            "displayName": "lat",
                            "comment": "",
                            "lookupOutputFieldName": "lat"
                        },
                        {
                            "fieldName": "ip_City",
                            "owner": "ICECAST",
                            "type": "string",
                            "fieldSearch": "ip_City=*",
                            "required": true,
                            "multivalue": false,
                            "hidden": false,
                            "editable": true,
                            "displayName": "City",
                            "comment": "",
                            "lookupOutputFieldName": "City"
                        },
                        {
                            "fieldName": "ip_Region",
                            "owner": "ICECAST",
                            "type": "string",
                            "fieldSearch": "ip_Region=*",
                            "required": true,
                            "multivalue": false,
                            "hidden": false,
                            "editable": true,
                            "displayName": "Region",
                            "comment": "",
                            "lookupOutputFieldName": "Region"
                        },
                        {
                            "fieldName": "ip_Country",
                            "owner": "ICECAST",
                            "type": "string",
                            "fieldSearch": "ip_Country=*",
                            "required": true,
                            "multivalue": false,
                            "hidden": false,
                            "editable": true,
                            "displayName": "Country",
                            "comment": "",
                            "lookupOutputFieldName": "Country"
                        }
                    ],
                    "inputField": "ip",
                    "calculationType": "GeoIP",
                    "comment": "",
                    "owner": "ICECAST",
                    "calculationID": "pevd49g4do",
                    "editable": true
                },
                {
                    "outputFields": [
                        {
                            "fieldName": "lookupAggregator",
                            "owner": "ICECAST",
                            "type": "string",
                            "fieldSearch": "",
                            "required": false,
                            "multivalue": false,
                            "hidden": false,
                            "editable": true,
                            "displayName": "lookupAggregator",
                            "comment": "",
                            "lookupOutputFieldName": "lookupAggregator"
                        },
                        {
                            "fieldName": "ecosystem",
                            "owner": "ICECAST",
                            "type": "string",
                            "fieldSearch": "",
                            "required": false,
                            "multivalue": false,
                            "hidden": false,
                            "editable": true,
                            "displayName": "ecosystem",
                            "comment": "",
                            "lookupOutputFieldName": "ecosystem"
                        }
                    ],
                    "calculationType": "Lookup",
                    "lookupName": "aggregatorLookup",
                    "comment": "",
                    "lookupInputs": [
                        {
                            "inputField": "aggregator",
                            "lookupField": "aggregator"
                        }
                    ],
                    "owner": "ICECAST",
                    "calculationID": "kg69bq7ch9",
                    "editable": true
                }
            ],
            "constraints": [
                {
                    "search": "sourcetype=icecast OR sourcetype=aissa",
                    "owner": "ICECAST"
                }
            ],
            "lineage": "ICECAST"
        }
    ],
    "objectNameList": [
        "ICECAST"
    ]
}
