sid,search,"splunk_server","_time","is_realtime",provenance,"api_et","api_lt","event_count","exec_time","result_count","savedsearch_name","scan_count","search_et","search_lt",status,"total_run_time","__mv_sid","__mv_search","__mv_splunk_server","__mv__time","__mv_is_realtime","__mv_provenance","__mv_api_et","__mv_api_lt","__mv_event_count","__mv_exec_time","__mv_result_count","__mv_savedsearch_name","__mv_scan_count","__mv_search_et","__mv_search_lt","__mv_status","__mv_total_run_time"
"rt_md_1500455944.3704","| metadata type=sourcetypes | search totalCount > 0","KI1-V-S-9010","1500455944.857788",1,"UI:Search",,,0,1500455944,13,,0,,,completed,"1.112",,,,,,,,,,,,,,,,,
"lasse__lasse__rsa__search9_1500455953.3705","search index=""google_analytics"" source=page_impressions host=RSA_WEB | streamstats max(pageviews) as maxPageviews by pageTitle hour | dedup maxPageviews hour pageTitle | stats sum(maxPageviews) as Views by pageTitle | sort - limit=10 Views","KI1-V-S-9010","1500455953.314746",0,"UI:Dashboard:rsh_website","1499850000.000000000","1500455953.000000000",0,1500455953,0,search9,19391,"1499850000.000000000","1500455953.000000000",completed,"0.359",,,,,,,,,,,,,,,,,
"lasse__lasse__rsa__search1_1500455954.3706","| tstats count AS ""Anzahl von ICECAST"" from datamodel=REGIOCAST_ICECAST where (nodename = ICECAST) (ICECAST.Brand=""R.SA"")   (ICECAST.lookupAggregator=""homepage"")   (ICECAST.duration>60)  groupby ICECAST.unixStart, ICECAST.unixEnd, ICECAST.lookupAggregator  | eval _time='ICECAST.unixStart' | timechart span=1d useother=0 count by  ICECAST.lookupAggregator 

| append [search index=""google_analytics"" source=new_sessions host=RSA_WEB | streamstats max(sessions) as maxSession by _time | dedup maxSession _time]
| eval _time = if(isNotNull('ICECAST.unixStart'),'ICECAST.unixStart',_time)

|timechart span=1d sum(maxSession) as ""Website Sitzungen""  max(homepage) as ""Stream Sessions""

| where _time < if(match(""now"",""\d{10}""), ""now"", relative_time(now(), if(match(""now"",""now""),""@d"",""now"")))

AND _time > if(match(""-7d@h"",""\d{10}""), ""-7d@h"", relative_time(now(), ""-7d@h""))","KI1-V-S-9010","1500455954.169880",0,"UI:Dashboard:rsh_website","1499551200.000000000","1500455954.000000000",41903,1500455954,6,search1,18831256,"1499551200.000000000","1500455954.000000000",completed,"6.76",,,,,,,,,,,,,,,,,
"lasse__lasse__rsa__search2_1500455954.3707","| tstats count AS ""Anzahl von ICECAST"" from datamodel=REGIOCAST_ICECAST where (nodename = ICECAST) (ICECAST.Brand=""R.SA"")   (ICECAST.lookupAggregator=""homepage"")   (ICECAST.duration>60)  groupby ICECAST.unixStart, ICECAST.unixEnd, ICECAST.lookupAggregator  | eval _time='ICECAST.unixStart' | timechart span=1h useother=0 count by  ICECAST.lookupAggregator 


| append [search index=""google_analytics"" source=new_sessions host=RSA_WEB | streamstats max(sessions) as maxSession by _time | dedup maxSession _time]
| where _time < if(match(""now"",""\d{10}""), ""now"", relative_time(now(), if(match(""now"",""now""),""@d"",""now"")))

AND _time > if(match(""-7d@h"",""\d{10}""), ""-7d@h"", relative_time(now(), ""-7d@h""))
|stats sum(maxSession) as webSessions  sum(homepage) as streamSessions
| eval percent = streamSessions/webSessions*100
| fields percent","KI1-V-S-9010","1500455954.171985",0,"UI:Dashboard:rsh_website","1499850000.000000000","1500455954.000000000",28756,1500455954,1,search2,13809033,"1499850000.000000000","1500455954.000000000",completed,"5.0120000000000005",,,,,,,,,,,,,,,,,
"lasse__lasse__rsa__search3_1500455954.3708","| tstats count AS ""Anzahl von ICECAST"" from datamodel=REGIOCAST_ICECAST where (nodename = ICECAST) (ICECAST.Brand=""R.SA"")   (ICECAST.lookupAggregator=""homepage"")   (ICECAST.duration>30)  groupby ICECAST.unixStart, ICECAST.unixEnd, ICECAST.lookupAggregator  | eval _time='ICECAST.unixStart' | timechart span=1h useother=0 count by  ICECAST.lookupAggregator 


| append [search index=""google_analytics"" source=new_sessions host=RSA_WEB | streamstats max(sessions) as maxSession by _time | dedup maxSession _time]
| where _time < if(match(""now"",""\d{10}""), ""now"", relative_time(now(), if(match(""now"",""now""),""@d"",""now"")))

AND _time > if(match(""-7d@h"",""\d{10}""), ""-7d@h"", relative_time(now(), ""-7d@h""))
|stats sum(maxSession) as webSessions  sum(homepage) as streamSessions
| eval percent = streamSessions/webSessions*100
| fields percent","KI1-V-S-9010","1500455954.174521",0,"UI:Dashboard:rsh_website","1499850000.000000000","1500455954.000000000",33561,1500455954,1,search3,13809033,"1499850000.000000000","1500455954.000000000",completed,"5.113",,,,,,,,,,,,,,,,,
"lasse__lasse__rsa__search4_1500455954.3709","search index=""google_analytics"" (source=""monthly_active_users"" OR source=""daily_active_users"") host=RSA_WEB | timechart span=1d first(dayUsers) as dayUsers by source | where isNotNull(daily_active_users) AND isNotNull(monthly_active_users) | rename daily_active_users as ""Daily Active Users"", monthly_active_users as ""Monthly Active Users""","KI1-V-S-9010","1500455954.175066",0,"UI:Dashboard:rsh_website","1499850000.000000000","1500455954.000000000",72,1500455954,6,search4,72,"1499850000.000000000","1500455954.000000000",completed,"0.267",,,,,,,,,,,,,,,,,
"lasse__lasse__rsa__search5_1500455954.3710","search index=""google_analytics"" source=new_sessions host=RSA_WEB | streamstats max(sessions) as maxSession by _time  | dedup maxSession _time |timechart span=1d sum(maxSession) as ""Website Sitzungen"" avg(percentNewSessions) as ""% neue Sitzungen""","KI1-V-S-9010","1500455954.179500",0,"UI:Dashboard:rsh_website","1499850000.000000000","1500455954.000000000",6710,1500455954,8,search5,31379,"1499850000.000000000","1500455954.000000000",completed,"0.543",,,,,,,,,,,,,,,,,
"lasse__lasse__rsa__search6_1500455954.3711","search index=""google_analytics"" source=page_impressions host=RSA_WEB | streamstats max(pageviews) as maxPageviews by pageTitle _time | dedup maxPageviews _time pageTitle | timechart span=1d sum(maxPageviews) as ""Page Impressions"" | where isNotNull('Page Impressions')","KI1-V-S-9010","1500455954.190006",0,"UI:Dashboard:rsh_website","1499850000.000000000","1500455954.000000000",4141,1500455954,7,search6,19391,"1499850000.000000000","1500455954.000000000",completed,"0.47400000000000003",,,,,,,,,,,,,,,,,
"lasse__lasse__rsa__search7_1500455954.3712","search index=""google_analytics""  host=RSA_WEB source=session_dimension | streamstats max(sessions) as maxSessions by _time latitude longitude | stats sum(maxSessions) by deviceCategory","KI1-V-S-9010","1500455954.209113",0,"UI:Dashboard:rsh_website","1499850000.000000000","1500455954.000000000",74696,1500455954,3,search7,74696,"1499850000.000000000","1500455954.000000000",completed,"0.972",,,,,,,,,,,,,,,,,
"lasse__lasse__rsa__search8_1500455954.3713","search index=""google_analytics""  host=RSA_WEB source=session_dimension country=Germany | streamstats max(sessions) as maxSessions by _time latitude longitude | stats sum(maxSessions) by region","KI1-V-S-9010","1500455954.212912",0,"UI:Dashboard:rsh_website","1499850000.000000000","1500455954.000000000",71311,1500455954,17,search8,71311,"1499850000.000000000","1500455954.000000000",completed,"1.022",,,,,,,,,,,,,,,,,
"lasse__lasse__rsa__search1_1500455974.3714","|inputlookup streamURL.csv | search Brand=""R.SA""| dedup Channel | table Channel","KI1-V-S-9010","1500455974.052678",0,"UI:Dashboard:rsh_top_5_aggregatoren","1500368400.000000000","1500455974.000000000",0,1500455974,13,search1,0,"1500368400.000000000","1500455974.000000000",completed,"0.026000000000000002",,,,,,,,,,,,,,,,,
"lasse__lasse__rsa__search2_1500455975.3715","| tstats count AS ""Anzahl von ICECAST"" from datamodel=REGIOCAST_ICECAST where (nodename = ICECAST) (ICECAST.Brand=""R.SA"")  ((ICECAST.Channel=""R.SA Simulcast"")) (ICECAST.lookupAggregator=""homepage"")  OR (ICECAST.lookupAggregator=""radiode"")  OR (ICECAST.lookupAggregator=""vtuner"")  OR (ICECAST.lookupAggregator=""tunein"") OR (ICECAST.lookupAggregator=""radiolikemee"") (ICECAST.duration>60)  groupby ICECAST.unixStart, ICECAST.unixEnd, ICECAST.lookupAggregator  | eval _time='ICECAST.unixStart' | timechart span=1h useother=0 count by  ICECAST.lookupAggregator |eval time= _time
| where time <= if(match(""@d"",""\d{10}""), ""@d"", relative_time(now(), ""@d"")) 

AND time >= if(match(""-1d@d"",""\d{10}""), ""-1d@d"", relative_time(now(), ""-1d@d"")) | fields - time","KI1-V-S-9010","1500455975.856002",0,"UI:Dashboard:rsh_top_5_aggregatoren","1500328800.000000000","1500455975.000000000",21287,1500455975,25,search2,3473774,"1500328800.000000000","1500455975.000000000",completed,"2.865",,,,,,,,,,,,,,,,,
"lasse__lasse__rsa__search3_1500455975.3716","| tstats count AS Anzahl from datamodel=REGIOCAST_ICECAST where (nodename = ICECAST) (ICECAST.Brand=""R.SA"") ((ICECAST.Channel=""R.SA Simulcast"")) (ICECAST.lookupAggregator=""homepage"") (ICECAST.duration>60) groupby ICECAST.unixStart
| eval _time = 'ICECAST.unixStart'
| where _time < if(match(""@d"",""\d{10}""), ""@d"", relative_time(now(), ""@d"")) 

AND _time > if(match(""-2d@d"",""\d{10}""), ""-2d@d"", relative_time(now(), ""-2d@d""))

| bin _time span=1d | timechart span=1d sum(Anzahl) as Anzahl | where isNotNull(Anzahl)","KI1-V-S-9010","1500455975.860835",0,"UI:Dashboard:rsh_top_5_aggregatoren","1500242400.000000000","1500455975.000000000",8656,1500455975,2,search3,4702753,"1500242400.000000000","1500455975.000000000",completed,"2.324",,,,,,,,,,,,,,,,,
"lasse__lasse__rsa__search4_1500455975.3717","| tstats count AS Anzahl from datamodel=REGIOCAST_ICECAST where (nodename = ICECAST) (ICECAST.Brand=""R.SA"") ((ICECAST.Channel=""R.SA Simulcast""))  (ICECAST.lookupAggregator=""radiolikemee"") (ICECAST.duration>60) groupby ICECAST.unixStart
| eval _time = 'ICECAST.unixStart'
| where _time < if(match(""@d"",""\d{10}""), ""@d"", relative_time(now(), ""@d"")) 

AND _time > if(match(""-2d@d"",""\d{10}""), ""-2d@d"", relative_time(now(), ""-2d@d""))

| bin _time span=1d | timechart span=1d sum(Anzahl) as Anzahl | where isNotNull(Anzahl)","KI1-V-S-9010","1500455975.861294",0,"UI:Dashboard:rsh_top_5_aggregatoren","1500242400.000000000","1500455975.000000000",4358,1500455975,2,search4,4702753,"1500242400.000000000","1500455975.000000000",completed,"2.008",,,,,,,,,,,,,,,,,
"lasse__lasse__rsa__search6_1500455975.3719","| tstats count AS Anzahl from datamodel=REGIOCAST_ICECAST where (nodename = ICECAST) (ICECAST.Brand=""R.SA"") ((ICECAST.Channel=""R.SA Simulcast""))  (ICECAST.lookupAggregator=""vtuner"")   (ICECAST.duration>60) groupby ICECAST.unixStart
| eval _time = 'ICECAST.unixStart'
| where _time < if(match(""@d"",""\d{10}""), ""@d"", relative_time(now(), ""@d"")) 

AND _time > if(match(""-2d@d"",""\d{10}""), ""-2d@d"", relative_time(now(), ""-2d@d""))

| bin _time span=1d | timechart span=1d sum(Anzahl) as Anzahl | where isNotNull(Anzahl)","KI1-V-S-9010","1500455975.861740",0,"UI:Dashboard:rsh_top_5_aggregatoren","1500242400.000000000","1500455975.000000000",11080,1500455975,2,search6,4702753,"1500242400.000000000","1500455975.000000000",completed,"2.186",,,,,,,,,,,,,,,,,
"lasse__lasse__rsa__search7_1500455975.3720","| tstats count AS Anzahl from datamodel=REGIOCAST_ICECAST where (nodename = ICECAST) (ICECAST.Brand=""R.SA"") ((ICECAST.Channel=""R.SA Simulcast""))  (ICECAST.lookupAggregator=""tunein"")  (ICECAST.duration>60) groupby ICECAST.unixStart
| eval _time = 'ICECAST.unixStart'
| where _time < if(match(""@d"",""\d{10}""), ""@d"", relative_time(now(), ""@d"")) 

AND _time > if(match(""-2d@d"",""\d{10}""), ""-2d@d"", relative_time(now(), ""-2d@d""))

| bin _time span=1d | timechart span=1d sum(Anzahl) as Anzahl | where isNotNull(Anzahl)","KI1-V-S-9010","1500455975.881290",0,"UI:Dashboard:rsh_top_5_aggregatoren","1500242400.000000000","1500455975.000000000",7741,1500455975,2,search7,4702753,"1500242400.000000000","1500455975.000000000",completed,"2.2",,,,,,,,,,,,,,,,,
"lasse__lasse__rsa__search8_1500455975.3721","| tstats count sum(ICECAST.duration) AS duration from datamodel=REGIOCAST_ICECAST where (nodename = ICECAST) (ICECAST.Brand=""R.SA"") ((ICECAST.Channel=""R.SA Simulcast"")) (ICECAST.lookupAggregator=""homepage"") (ICECAST.duration>60) groupby ICECAST.unixStart 

| where 'ICECAST.unixStart' < if(match(""@d"",""\d{10}""), ""@d"", relative_time(now(), ""@d"")) 

AND 'ICECAST.unixStart' > if(match(""-2d@d"",""\d{10}""), ""-2d@d"", relative_time(now(), ""-2d@d""))

| eval  _time = 'ICECAST.unixStart'
| timechart span=1d sum(count) as count sum(duration) as duration | eval avgDuration=(duration/count)/60 | fields _time avgDuration| where isNotNull(avgDuration)","KI1-V-S-9010","1500455975.904204",0,"UI:Dashboard:rsh_top_5_aggregatoren","1500242400.000000000","1500455975.000000000",8656,1500455976,2,search8,4702757,"1500242400.000000000","1500455975.000000000",completed,"2.993",,,,,,,,,,,,,,,,,
"lasse__lasse__rsa__search10_1500455975.3723","| tstats count sum(ICECAST.duration) AS duration from datamodel=REGIOCAST_ICECAST where (nodename = ICECAST) (ICECAST.Brand=""R.SA"") ((ICECAST.Channel=""R.SA Simulcast"")) (ICECAST.lookupAggregator=""radiode"") (ICECAST.duration>60) groupby ICECAST.unixStart 

| where 'ICECAST.unixStart' < if(match(""@d"",""\d{10}""), ""@d"", relative_time(now(), ""@d"")) 

AND 'ICECAST.unixStart' > if(match(""-2d@d"",""\d{10}""), ""-2d@d"", relative_time(now(), ""-2d@d""))

| eval  _time = 'ICECAST.unixStart'
| timechart span=1d sum(count) as count sum(duration) as duration | eval avgDuration=(duration/count)/60 | fields _time avgDuration| where isNotNull(avgDuration)","KI1-V-S-9010","1500455975.904726",0,"UI:Dashboard:rsh_top_5_aggregatoren","1500242400.000000000","1500455975.000000000",3814,1500455976,2,search10,4702757,"1500242400.000000000","1500455975.000000000",completed,"2.997",,,,,,,,,,,,,,,,,
"lasse__lasse__rsa__search11_1500455975.3724","| tstats count sum(ICECAST.duration) AS duration from datamodel=REGIOCAST_ICECAST where (nodename = ICECAST) (ICECAST.Brand=""R.SA"") ((ICECAST.Channel=""R.SA Simulcast"")) (ICECAST.lookupAggregator=""vtuner"") (ICECAST.duration>60) groupby ICECAST.unixStart 

| where 'ICECAST.unixStart' < if(match(""@d"",""\d{10}""), ""@d"", relative_time(now(), ""@d"")) 

AND 'ICECAST.unixStart' > if(match(""-2d@d"",""\d{10}""), ""-2d@d"", relative_time(now(), ""-2d@d""))

| eval  _time = 'ICECAST.unixStart'
| timechart span=1d sum(count) as count sum(duration) as duration | eval avgDuration=(duration/count)/60 | fields _time avgDuration| where isNotNull(avgDuration)","KI1-V-S-9010","1500455975.905241",0,"UI:Dashboard:rsh_top_5_aggregatoren","1500242400.000000000","1500455975.000000000",11080,1500455976,2,search11,4702757,"1500242400.000000000","1500455975.000000000",completed,"2.689",,,,,,,,,,,,,,,,,
"lasse__lasse__rsa__search13_1500455975.3726","| tstats sum(ICECAST.duration) AS duration from datamodel=REGIOCAST_ICECAST where (nodename = ICECAST) (ICECAST.Brand=""R.SA"") ((ICECAST.Channel=""R.SA Simulcast"")) (ICECAST.lookupAggregator=""homepage"") (ICECAST.duration>60) groupby ICECAST.unixStart 
| eval _time = 'ICECAST.unixStart'
| where _time < if(match(""@d"",""\d{10}""), ""@d"", relative_time(now(), ""@d"")) 

AND _time > if(match(""-2d@d"",""\d{10}""), ""-2d@d"", relative_time(now(), ""-2d@d""))
| eval duration = duration/60/60
 | timechart span=1d sum(duration) as duration | where isNotNull(duration)","KI1-V-S-9010","1500455975.921303",0,"UI:Dashboard:rsh_top_5_aggregatoren","1500242400.000000000","1500455975.000000000",8656,1500455976,2,search13,4702757,"1500242400.000000000","1500455975.000000000",completed,"2.765",,,,,,,,,,,,,,,,,
"lasse__lasse__rsa__search15_1500455975.3728","| tstats sum(ICECAST.duration) AS duration from datamodel=REGIOCAST_ICECAST where (nodename = ICECAST) (ICECAST.Brand=""R.SA"") ((ICECAST.Channel=""R.SA Simulcast"")) (ICECAST.lookupAggregator=""radiode"") (ICECAST.duration>60) groupby ICECAST.unixStart 
| eval _time = 'ICECAST.unixStart'
| where _time < if(match(""@d"",""\d{10}""), ""@d"", relative_time(now(), ""@d"")) 

AND _time > if(match(""-2d@d"",""\d{10}""), ""-2d@d"", relative_time(now(), ""-2d@d""))
| eval duration = duration/60/60
 | timechart span=1d sum(duration) as duration | where isNotNull(duration)","KI1-V-S-9010","1500455975.945811",0,"UI:Dashboard:rsh_top_5_aggregatoren","1500242400.000000000","1500455975.000000000",3814,1500455976,2,search15,4702757,"1500242400.000000000","1500455975.000000000",completed,"2.698",,,,,,,,,,,,,,,,,
"lasse__lasse__rsa__search16_1500455975.3729","| tstats sum(ICECAST.duration) AS duration from datamodel=REGIOCAST_ICECAST where (nodename = ICECAST) (ICECAST.Brand=""R.SA"") ((ICECAST.Channel=""R.SA Simulcast"")) (ICECAST.lookupAggregator=""vtuner"") (ICECAST.duration>60) groupby ICECAST.unixStart 
| eval _time = 'ICECAST.unixStart'
| where _time < if(match(""@d"",""\d{10}""), ""@d"", relative_time(now(), ""@d"")) 

AND _time > if(match(""-2d@d"",""\d{10}""), ""-2d@d"", relative_time(now(), ""-2d@d""))
| eval duration = duration/60/60
 | timechart span=1d sum(duration) as duration | where isNotNull(duration)","KI1-V-S-9010","1500455975.946486",0,"UI:Dashboard:rsh_top_5_aggregatoren","1500242400.000000000","1500455975.000000000",11080,1500455976,2,search16,4702753,"1500242400.000000000","1500455975.000000000",completed,"2.279",,,,,,,,,,,,,,,,,
"lasse__lasse__rsa__search17_1500455975.3730","| tstats sum(ICECAST.duration) AS duration from datamodel=REGIOCAST_ICECAST where (nodename = ICECAST) (ICECAST.Brand=""R.SA"") ((ICECAST.Channel=""R.SA Simulcast"")) (ICECAST.lookupAggregator=""tunein"") (ICECAST.duration>60) groupby ICECAST.unixStart 
| eval _time = 'ICECAST.unixStart'
| where _time < if(match(""@d"",""\d{10}""), ""@d"", relative_time(now(), ""@d"")) 

AND _time > if(match(""-2d@d"",""\d{10}""), ""-2d@d"", relative_time(now(), ""-2d@d""))
| eval duration = duration/60/60
 | timechart span=1d sum(duration) as duration | where isNotNull(duration)","KI1-V-S-9010","1500455975.956449",0,"UI:Dashboard:rsh_top_5_aggregatoren","1500242400.000000000","1500455975.000000000",7741,1500455976,2,search17,4702757,"1500242400.000000000","1500455975.000000000",completed,"2.661",,,,,,,,,,,,,,,,,
"lasse__lasse__rsa__search18_1500455975.3731","|tstats count AS ""Count"" from datamodel=REGIOCAST_ICECAST where (nodename = ICECAST) ((ICECAST.Channel=""R.SA Simulcast"")) (ICECAST.Brand=""R.SA"") (ICECAST.lookupAggregator=""homepage"")  (ICECAST.duration>3) groupby ICECAST.duration ICECAST.unixStart
| eval _time= 'ICECAST.unixStart'
| where _time < if(match(""@d"",""\d{10}""), ""@d"", relative_time(now(), ""@d"")) 

AND _time > if(match(""-2d@d"",""\d{10}""), ""-2d@d"", relative_time(now(), ""-2d@d""))

| eval category = if('ICECAST.duration' >60,""S2"",""temp"") | timechart span=1d sum(Count) as summe by category  
| eval S1='S2'+'temp'


| eval percent = (1-(S2/S1))*100 | fields percent | where isNotNull(percent)","KI1-V-S-9010","1500455975.961279",0,"UI:Dashboard:rsh_top_5_aggregatoren","1500242400.000000000","1500455975.000000000",11575,1500455976,2,search18,4702757,"1500242400.000000000","1500455975.000000000",completed,"2.702",,,,,,,,,,,,,,,,,
"lasse__lasse__rsa__search19_1500455975.3732","|tstats count AS ""Count"" from datamodel=REGIOCAST_ICECAST where (nodename = ICECAST) ((ICECAST.Channel=""R.SA Simulcast"")) (ICECAST.Brand=""R.SA"") (ICECAST.lookupAggregator=""radiolikemee"")  (ICECAST.duration>3) groupby ICECAST.duration ICECAST.unixStart
| eval _time= 'ICECAST.unixStart'
| where _time < if(match(""@d"",""\d{10}""), ""@d"", relative_time(now(), ""@d"")) 

AND _time > if(match(""-2d@d"",""\d{10}""), ""-2d@d"", relative_time(now(), ""-2d@d""))

| eval category = if('ICECAST.duration' >60,""S2"",""temp"") | timechart span=1d sum(Count) as summe by category  
| eval S1='S2'+'temp'


| eval percent = (1-(S2/S1))*100 | fields percent | where isNotNull(percent)","KI1-V-S-9010","1500455975.964177",0,"UI:Dashboard:rsh_top_5_aggregatoren","1500242400.000000000","1500455975.000000000",5186,1500455976,2,search19,4702757,"1500242400.000000000","1500455975.000000000",completed,"2.869",,,,,,,,,,,,,,,,,
"lasse__lasse__rsa__search20_1500455975.3733","|tstats count AS ""Count"" from datamodel=REGIOCAST_ICECAST where (nodename = ICECAST) ((ICECAST.Channel=""R.SA Simulcast"")) (ICECAST.Brand=""R.SA"") (ICECAST.lookupAggregator=""radiode"")  (ICECAST.duration>3) groupby ICECAST.duration ICECAST.unixStart
| eval _time= 'ICECAST.unixStart'
| where _time < if(match(""@d"",""\d{10}""), ""@d"", relative_time(now(), ""@d"")) 

AND _time > if(match(""-2d@d"",""\d{10}""), ""-2d@d"", relative_time(now(), ""-2d@d""))

| eval category = if('ICECAST.duration' >60,""S2"",""temp"") | timechart span=1d sum(Count) as summe by category  
| eval S1='S2'+'temp'


| eval percent = (1-(S2/S1))*100 | fields percent | where isNotNull(percent)","KI1-V-S-9010","1500455975.995553",0,"UI:Dashboard:rsh_top_5_aggregatoren","1500242400.000000000","1500455975.000000000",4996,1500455978,2,search20,4702757,"1500242400.000000000","1500455975.000000000",completed,"1.733",,,,,,,,,,,,,,,,,
"lasse__lasse__rsa__search21_1500455976.3734","|tstats count AS ""Count"" from datamodel=REGIOCAST_ICECAST where (nodename = ICECAST) ((ICECAST.Channel=""R.SA Simulcast"")) (ICECAST.Brand=""R.SA"") (ICECAST.lookupAggregator=""vtuner"")  (ICECAST.duration>3) groupby ICECAST.duration ICECAST.unixStart
| eval _time= 'ICECAST.unixStart'
| where _time < if(match(""@d"",""\d{10}""), ""@d"", relative_time(now(), ""@d"")) 

AND _time > if(match(""-2d@d"",""\d{10}""), ""-2d@d"", relative_time(now(), ""-2d@d""))

| eval category = if('ICECAST.duration' >60,""S2"",""temp"") | timechart span=1d sum(Count) as summe by category  
| eval S1='S2'+'temp'


| eval percent = (1-(S2/S1))*100 | fields percent | where isNotNull(percent)","KI1-V-S-9010","1500455976.006345",0,"UI:Dashboard:rsh_top_5_aggregatoren","1500242400.000000000","1500455976.000000000",12788,1500455978,2,search21,4702773,"1500242400.000000000","1500455976.000000000",completed,"1.589",,,,,,,,,,,,,,,,,
"lasse__lasse__rsa__search22_1500455976.3735","|tstats count AS ""Count"" from datamodel=REGIOCAST_ICECAST where (nodename = ICECAST) ((ICECAST.Channel=""R.SA Simulcast"")) (ICECAST.Brand=""R.SA"") (ICECAST.lookupAggregator=""tunein"")  (ICECAST.duration>3) groupby ICECAST.duration ICECAST.unixStart
| eval _time= 'ICECAST.unixStart'
| where _time < if(match(""@d"",""\d{10}""), ""@d"", relative_time(now(), ""@d"")) 

AND _time > if(match(""-2d@d"",""\d{10}""), ""-2d@d"", relative_time(now(), ""-2d@d""))

| eval category = if('ICECAST.duration' >60,""S2"",""temp"") | timechart span=1d sum(Count) as summe by category  
| eval S1='S2'+'temp'


| eval percent = (1-(S2/S1))*100 | fields percent | where isNotNull(percent)","KI1-V-S-9010","1500455976.013366",0,"UI:Dashboard:rsh_top_5_aggregatoren","1500242400.000000000","1500455976.000000000",11055,1500455977,2,search22,4702773,"1500242400.000000000","1500455976.000000000",completed,"1.939",,,,,,,,,,,,,,,,,
"lasse__lasse__rsa__search23_1500455976.3736","| tstats count AS count from datamodel=REGIOCAST_ICECAST where (nodename = ICECAST) (ICECAST.Brand=""R.SA"") (ICECAST.duration>60) ((ICECAST.Channel=""R.SA Simulcast"")) (ICECAST.lookupAggregator=""homepage"") groupby ICECAST.listenerTimeSegment ICECAST.unixStart 
| eval _time = 'ICECAST.unixStart'
| where _time <= if(match(""@d"",""\d{10}""), ""@d"", relative_time(now(), ""@d"")) 

AND _time >= if(match(""-1d@d"",""\d{10}""), ""-1d@d"", relative_time(now(), ""-1d@d""))

| stats  sum(count) as Anzahl by ICECAST.listenerTimeSegment","KI1-V-S-9010","1500455976.021234",0,"UI:Dashboard:rsh_top_5_aggregatoren","1500328800.000000000","1500455976.000000000",5045,1500455978,5,search23,3473790,"1500328800.000000000","1500455976.000000000",completed,"1.041",,,,,,,,,,,,,,,,,
"lasse__lasse__rsa__search25_1500455976.3738","| tstats count AS count from datamodel=REGIOCAST_ICECAST where (nodename = ICECAST) (ICECAST.Brand=""R.SA"") (ICECAST.duration>60) ((ICECAST.Channel=""R.SA Simulcast"")) (ICECAST.lookupAggregator=""radiode"") groupby ICECAST.listenerTimeSegment ICECAST.unixStart 
| eval _time = 'ICECAST.unixStart'
| where _time <= if(match(""@d"",""\d{10}""), ""@d"", relative_time(now(), ""@d"")) 

AND _time >= if(match(""-1d@d"",""\d{10}""), ""-1d@d"", relative_time(now(), ""-1d@d""))

| stats  sum(count) as Anzahl by ICECAST.listenerTimeSegment","KI1-V-S-9010","1500455976.026346",0,"UI:Dashboard:rsh_top_5_aggregatoren","1500328800.000000000","1500455976.000000000",2282,1500455978,5,search25,3473790,"1500328800.000000000","1500455976.000000000",completed,"1.0110000000000001",,,,,,,,,,,,,,,,,
"lasse__lasse__rsa__search27_1500455976.3739","| tstats count AS count from datamodel=REGIOCAST_ICECAST where (nodename = ICECAST) (ICECAST.Brand=""R.SA"") (ICECAST.duration>60) ((ICECAST.Channel=""R.SA Simulcast"")) (ICECAST.lookupAggregator=""tunein"") groupby ICECAST.listenerTimeSegment ICECAST.unixStart 
| eval _time = 'ICECAST.unixStart'
| where _time <= if(match(""@d"",""\d{10}""), ""@d"", relative_time(now(), ""@d"")) 

AND _time >= if(match(""-1d@d"",""\d{10}""), ""-1d@d"", relative_time(now(), ""-1d@d""))

| stats  sum(count) as Anzahl by ICECAST.listenerTimeSegment","KI1-V-S-9010","1500455976.066693",0,"UI:Dashboard:rsh_top_5_aggregatoren","1500328800.000000000","1500455976.000000000",4782,1500455978,5,search27,3473790,"1500328800.000000000","1500455976.000000000",completed,"1.171",,,,,,,,,,,,,,,,,
"lasse__lasse__rsa__search26_1500455976.3740","| tstats count AS count from datamodel=REGIOCAST_ICECAST where (nodename = ICECAST) (ICECAST.Brand=""R.SA"") (ICECAST.duration>60) ((ICECAST.Channel=""R.SA Simulcast"")) (ICECAST.lookupAggregator=""vtuner"")  groupby ICECAST.listenerTimeSegment ICECAST.unixStart 
| eval _time = 'ICECAST.unixStart'
| where _time <= if(match(""@d"",""\d{10}""), ""@d"", relative_time(now(), ""@d"")) 

AND _time >= if(match(""-1d@d"",""\d{10}""), ""-1d@d"", relative_time(now(), ""-1d@d""))

| stats  sum(count) as Anzahl by ICECAST.listenerTimeSegment","KI1-V-S-9010","1500455976.069063",0,"UI:Dashboard:rsh_top_5_aggregatoren","1500328800.000000000","1500455976.000000000",6476,1500455979,5,search26,3473790,"1500328800.000000000","1500455976.000000000",completed,"1.04",,,,,,,,,,,,,,,,,
"lasse__lasse__rsa__search2_1500455991.3741","| tstats count AS ""Anzahl von ICECAST"" from datamodel=REGIOCAST_ICECAST where (nodename = ICECAST) (ICECAST.Brand=""R.SA"")  ((ICECAST.Channel=""R.SA Simulcast"")) (ICECAST.lookupAggregator=""homepage"")  OR (ICECAST.lookupAggregator=""radiode"")  OR (ICECAST.lookupAggregator=""vtuner"")  OR (ICECAST.lookupAggregator=""tunein"") OR (ICECAST.lookupAggregator=""radiolikemee"") (ICECAST.duration>60)  groupby ICECAST.unixStart, ICECAST.unixEnd, ICECAST.lookupAggregator  | eval _time='ICECAST.unixStart' | timechart span=1h useother=0 count by  ICECAST.lookupAggregator |eval time= _time
| where time <= if(match(""@d"",""\d{10}""), ""@d"", relative_time(now(), ""@d"")) 

AND time >= if(match(""-7d@d"",""\d{10}""), ""-7d@d"", relative_time(now(), ""-7d@d"")) | fields - time","KI1-V-S-9010","1500455991.139942",0,"UI:Dashboard:rsh_top_5_aggregatoren","1499810400.000000000","1500455991.000000000",105968,1500455991,169,search2,14664680,"1499810400.000000000","1500455991.000000000",completed,"9.513",,,,,,,,,,,,,,,,,
"lasse__lasse__rsa__search23_1500455991.3742","| tstats count AS count from datamodel=REGIOCAST_ICECAST where (nodename = ICECAST) (ICECAST.Brand=""R.SA"") (ICECAST.duration>60) ((ICECAST.Channel=""R.SA Simulcast"")) (ICECAST.lookupAggregator=""homepage"") groupby ICECAST.listenerTimeSegment ICECAST.unixStart 
| eval _time = 'ICECAST.unixStart'
| where _time <= if(match(""@d"",""\d{10}""), ""@d"", relative_time(now(), ""@d"")) 

AND _time >= if(match(""-7d@d"",""\d{10}""), ""-7d@d"", relative_time(now(), ""-7d@d""))

| stats  sum(count) as Anzahl by ICECAST.listenerTimeSegment","KI1-V-S-9010","1500455991.143497",0,"UI:Dashboard:rsh_top_5_aggregatoren","1499810400.000000000","1500455991.000000000",24945,1500455991,5,search23,14664680,"1499810400.000000000","1500455991.000000000",completed,"5.535",,,,,,,,,,,,,,,,,
"lasse__lasse__rsa__search24_1500455991.3743","| tstats count AS count from datamodel=REGIOCAST_ICECAST where (nodename = ICECAST) (ICECAST.Brand=""R.SA"") (ICECAST.duration>60) ((ICECAST.Channel=""R.SA Simulcast"")) (ICECAST.lookupAggregator=""radiolikemee"") groupby ICECAST.listenerTimeSegment ICECAST.unixStart 
| eval _time = 'ICECAST.unixStart'
| where _time <= if(match(""@d"",""\d{10}""), ""@d"", relative_time(now(), ""@d"")) 

AND _time >= if(match(""-7d@d"",""\d{10}""), ""-7d@d"", relative_time(now(), ""-7d@d""))

| stats  sum(count) as Anzahl by ICECAST.listenerTimeSegment","KI1-V-S-9010","1500455991.145933",0,"UI:Dashboard:rsh_top_5_aggregatoren","1499810400.000000000","1500455991.000000000",11715,1500455991,5,search24,14664680,"1499810400.000000000","1500455991.000000000",completed,"5.132",,,,,,,,,,,,,,,,,
"lasse__lasse__rsa__search25_1500455991.3744","| tstats count AS count from datamodel=REGIOCAST_ICECAST where (nodename = ICECAST) (ICECAST.Brand=""R.SA"") (ICECAST.duration>60) ((ICECAST.Channel=""R.SA Simulcast"")) (ICECAST.lookupAggregator=""radiode"") groupby ICECAST.listenerTimeSegment ICECAST.unixStart 
| eval _time = 'ICECAST.unixStart'
| where _time <= if(match(""@d"",""\d{10}""), ""@d"", relative_time(now(), ""@d"")) 

AND _time >= if(match(""-7d@d"",""\d{10}""), ""-7d@d"", relative_time(now(), ""-7d@d""))

| stats  sum(count) as Anzahl by ICECAST.listenerTimeSegment","KI1-V-S-9010","1500455991.178954",0,"UI:Dashboard:rsh_top_5_aggregatoren","1499810400.000000000","1500455991.000000000",11403,1500455991,5,search25,14664680,"1499810400.000000000","1500455991.000000000",completed,"4.914",,,,,,,,,,,,,,,,,
"lasse__lasse__rsa__search26_1500455991.3745","| tstats count AS count from datamodel=REGIOCAST_ICECAST where (nodename = ICECAST) (ICECAST.Brand=""R.SA"") (ICECAST.duration>60) ((ICECAST.Channel=""R.SA Simulcast"")) (ICECAST.lookupAggregator=""vtuner"")  groupby ICECAST.listenerTimeSegment ICECAST.unixStart 
| eval _time = 'ICECAST.unixStart'
| where _time <= if(match(""@d"",""\d{10}""), ""@d"", relative_time(now(), ""@d"")) 

AND _time >= if(match(""-7d@d"",""\d{10}""), ""-7d@d"", relative_time(now(), ""-7d@d""))

| stats  sum(count) as Anzahl by ICECAST.listenerTimeSegment","KI1-V-S-9010","1500455991.215938",0,"UI:Dashboard:rsh_top_5_aggregatoren","1499810400.000000000","1500455991.000000000",33819,1500455991,5,search26,14664680,"1499810400.000000000","1500455991.000000000",completed,"5.877",,,,,,,,,,,,,,,,,
"lasse__lasse__rsa__search27_1500455991.3746","| tstats count AS count from datamodel=REGIOCAST_ICECAST where (nodename = ICECAST) (ICECAST.Brand=""R.SA"") (ICECAST.duration>60) ((ICECAST.Channel=""R.SA Simulcast"")) (ICECAST.lookupAggregator=""tunein"") groupby ICECAST.listenerTimeSegment ICECAST.unixStart 
| eval _time = 'ICECAST.unixStart'
| where _time <= if(match(""@d"",""\d{10}""), ""@d"", relative_time(now(), ""@d"")) 

AND _time >= if(match(""-7d@d"",""\d{10}""), ""-7d@d"", relative_time(now(), ""-7d@d""))

| stats  sum(count) as Anzahl by ICECAST.listenerTimeSegment","KI1-V-S-9010","1500455991.262257",0,"UI:Dashboard:rsh_top_5_aggregatoren","1499810400.000000000","1500455991.000000000",24086,1500455991,5,search27,14664680,"1499810400.000000000","1500455991.000000000",completed,"6.098",,,,,,,,,,,,,,,,,
"lasse__lasse__rsa__search4_1500455991.3748","| tstats count AS Anzahl from datamodel=REGIOCAST_ICECAST where (nodename = ICECAST) (ICECAST.Brand=""R.SA"") ((ICECAST.Channel=""R.SA Simulcast""))  (ICECAST.lookupAggregator=""radiolikemee"") (ICECAST.duration>60) groupby ICECAST.unixStart
| eval _time = 'ICECAST.unixStart'
| where _time < if(match(""@d"",""\d{10}""), ""@d"", relative_time(now(), ""@d"")) 

AND _time > if(match(""-14d@d"",""\d{10}""), ""-14d@d"", relative_time(now(), ""-14d@d""))

| bin _time span=7d | timechart span=7d sum(Anzahl) as Anzahl | where isNotNull(Anzahl)","KI1-V-S-9010","1500455991.266299",0,"UI:Dashboard:rsh_top_5_aggregatoren","1499205600.000000000","1500455991.000000000",23199,1500455991,2,search4,26955710,"1499205600.000000000","1500455991.000000000",completed,"8.869",,,,,,,,,,,,,,,,,
"lasse__lasse__rsa__search5_1500455991.3749","| tstats count AS Anzahl from datamodel=REGIOCAST_ICECAST where (nodename = ICECAST) (ICECAST.Brand=""R.SA"") ((ICECAST.Channel=""R.SA Simulcast"")) (ICECAST.lookupAggregator=""radiode"")   (ICECAST.duration>60) groupby ICECAST.unixStart
| eval _time = 'ICECAST.unixStart'
| where _time < if(match(""@d"",""\d{10}""), ""@d"", relative_time(now(), ""@d"")) 

AND _time > if(match(""-14d@d"",""\d{10}""), ""-14d@d"", relative_time(now(), ""-14d@d""))

| bin _time span=7d | timechart span=7d sum(Anzahl) as Anzahl | where isNotNull(Anzahl)","KI1-V-S-9010","1500455991.297509",0,"UI:Dashboard:rsh_top_5_aggregatoren","1499205600.000000000","1500455991.000000000",22553,1500455991,2,search5,26955710,"1499205600.000000000","1500455991.000000000",completed,"8.078",,,,,,,,,,,,,,,,,
"lasse__lasse__rsa__search6_1500455991.3750","| tstats count AS Anzahl from datamodel=REGIOCAST_ICECAST where (nodename = ICECAST) (ICECAST.Brand=""R.SA"") ((ICECAST.Channel=""R.SA Simulcast""))  (ICECAST.lookupAggregator=""vtuner"")   (ICECAST.duration>60) groupby ICECAST.unixStart
| eval _time = 'ICECAST.unixStart'
| where _time < if(match(""@d"",""\d{10}""), ""@d"", relative_time(now(), ""@d"")) 

AND _time > if(match(""-14d@d"",""\d{10}""), ""-14d@d"", relative_time(now(), ""-14d@d""))

| bin _time span=7d | timechart span=7d sum(Anzahl) as Anzahl | where isNotNull(Anzahl)","KI1-V-S-9010","1500455991.302427",0,"UI:Dashboard:rsh_top_5_aggregatoren","1499205600.000000000","1500455991.000000000",64182,1500455991,2,search6,26955710,"1499205600.000000000","1500455991.000000000",completed,"10.238",,,,,,,,,,,,,,,,,
"lasse__lasse__rsa__search7_1500455991.3751","| tstats count AS Anzahl from datamodel=REGIOCAST_ICECAST where (nodename = ICECAST) (ICECAST.Brand=""R.SA"") ((ICECAST.Channel=""R.SA Simulcast""))  (ICECAST.lookupAggregator=""tunein"")  (ICECAST.duration>60) groupby ICECAST.unixStart
| eval _time = 'ICECAST.unixStart'
| where _time < if(match(""@d"",""\d{10}""), ""@d"", relative_time(now(), ""@d"")) 

AND _time > if(match(""-14d@d"",""\d{10}""), ""-14d@d"", relative_time(now(), ""-14d@d""))

| bin _time span=7d | timechart span=7d sum(Anzahl) as Anzahl | where isNotNull(Anzahl)","KI1-V-S-9010","1500455991.312381",0,"UI:Dashboard:rsh_top_5_aggregatoren","1499205600.000000000","1500455991.000000000",44809,1500455991,2,search7,26955710,"1499205600.000000000","1500455991.000000000",completed,"9.304",,,,,,,,,,,,,,,,,
"lasse__lasse__rsa__search8_1500455991.3752","| tstats count sum(ICECAST.duration) AS duration from datamodel=REGIOCAST_ICECAST where (nodename = ICECAST) (ICECAST.Brand=""R.SA"") ((ICECAST.Channel=""R.SA Simulcast"")) (ICECAST.lookupAggregator=""homepage"") (ICECAST.duration>60) groupby ICECAST.unixStart 

| where 'ICECAST.unixStart' < if(match(""@d"",""\d{10}""), ""@d"", relative_time(now(), ""@d"")) 

AND 'ICECAST.unixStart' > if(match(""-14d@d"",""\d{10}""), ""-14d@d"", relative_time(now(), ""-14d@d""))

| eval  _time = 'ICECAST.unixStart'
| timechart span=7d sum(count) as count sum(duration) as duration | eval avgDuration=(duration/count)/60 | fields _time avgDuration| where isNotNull(avgDuration)","KI1-V-S-9010","1500455991.338305",0,"UI:Dashboard:rsh_top_5_aggregatoren","1499205600.000000000","1500455991.000000000",48930,1500455991,2,search8,26955710,"1499205600.000000000","1500455991.000000000",completed,"11.569",,,,,,,,,,,,,,,,,
"lasse__lasse__rsa__search9_1500455991.3753","| tstats count sum(ICECAST.duration) AS duration from datamodel=REGIOCAST_ICECAST where (nodename = ICECAST) (ICECAST.Brand=""R.SA"") ((ICECAST.Channel=""R.SA Simulcast"")) (ICECAST.lookupAggregator=""radiolikemee"") (ICECAST.duration>60) groupby ICECAST.unixStart 

| where 'ICECAST.unixStart' < if(match(""@d"",""\d{10}""), ""@d"", relative_time(now(), ""@d"")) 

AND 'ICECAST.unixStart' > if(match(""-14d@d"",""\d{10}""), ""-14d@d"", relative_time(now(), ""-14d@d""))

| eval  _time = 'ICECAST.unixStart'
| timechart span=7d sum(count) as count sum(duration) as duration | eval avgDuration=(duration/count)/60 | fields _time avgDuration| where isNotNull(avgDuration)","KI1-V-S-9010","1500455991.344176",0,"UI:Dashboard:rsh_top_5_aggregatoren","1499205600.000000000","1500455991.000000000",23199,1500455991,2,search9,26955710,"1499205600.000000000","1500455991.000000000",completed,"10.290000000000001",,,,,,,,,,,,,,,,,
"lasse__lasse__rsa__search10_1500455991.3754","| tstats count sum(ICECAST.duration) AS duration from datamodel=REGIOCAST_ICECAST where (nodename = ICECAST) (ICECAST.Brand=""R.SA"") ((ICECAST.Channel=""R.SA Simulcast"")) (ICECAST.lookupAggregator=""radiode"") (ICECAST.duration>60) groupby ICECAST.unixStart 

| where 'ICECAST.unixStart' < if(match(""@d"",""\d{10}""), ""@d"", relative_time(now(), ""@d"")) 

AND 'ICECAST.unixStart' > if(match(""-14d@d"",""\d{10}""), ""-14d@d"", relative_time(now(), ""-14d@d""))

| eval  _time = 'ICECAST.unixStart'
| timechart span=7d sum(count) as count sum(duration) as duration | eval avgDuration=(duration/count)/60 | fields _time avgDuration| where isNotNull(avgDuration)","KI1-V-S-9010","1500455991.361237",0,"UI:Dashboard:rsh_top_5_aggregatoren","1499205600.000000000","1500455991.000000000",22553,1500455991,2,search10,26955710,"1499205600.000000000","1500455991.000000000",completed,"11.802",,,,,,,,,,,,,,,,,
"lasse__lasse__rsa__search11_1500455991.3755","| tstats count sum(ICECAST.duration) AS duration from datamodel=REGIOCAST_ICECAST where (nodename = ICECAST) (ICECAST.Brand=""R.SA"") ((ICECAST.Channel=""R.SA Simulcast"")) (ICECAST.lookupAggregator=""vtuner"") (ICECAST.duration>60) groupby ICECAST.unixStart 

| where 'ICECAST.unixStart' < if(match(""@d"",""\d{10}""), ""@d"", relative_time(now(), ""@d"")) 

AND 'ICECAST.unixStart' > if(match(""-14d@d"",""\d{10}""), ""-14d@d"", relative_time(now(), ""-14d@d""))

| eval  _time = 'ICECAST.unixStart'
| timechart span=7d sum(count) as count sum(duration) as duration | eval avgDuration=(duration/count)/60 | fields _time avgDuration| where isNotNull(avgDuration)","KI1-V-S-9010","1500455991.382960",0,"UI:Dashboard:rsh_top_5_aggregatoren","1499205600.000000000","1500455991.000000000",64182,1500455991,2,search11,26955710,"1499205600.000000000","1500455991.000000000",completed,"11.72",,,,,,,,,,,,,,,,,
"lasse__lasse__rsa__search12_1500455991.3756","| tstats count sum(ICECAST.duration) AS duration from datamodel=REGIOCAST_ICECAST where (nodename = ICECAST) (ICECAST.Brand=""R.SA"") ((ICECAST.Channel=""R.SA Simulcast"")) (ICECAST.lookupAggregator=""tunein"") (ICECAST.duration>60) groupby ICECAST.unixStart 

| where 'ICECAST.unixStart' < if(match(""@d"",""\d{10}""), ""@d"", relative_time(now(), ""@d"")) 

AND 'ICECAST.unixStart' > if(match(""-14d@d"",""\d{10}""), ""-14d@d"", relative_time(now(), ""-14d@d""))

| eval  _time = 'ICECAST.unixStart'
| timechart span=7d sum(count) as count sum(duration) as duration | eval avgDuration=(duration/count)/60 | fields _time avgDuration| where isNotNull(avgDuration)","KI1-V-S-9010","1500455991.398026",0,"UI:Dashboard:rsh_top_5_aggregatoren","1499205600.000000000","1500455991.000000000",44809,1500455991,2,search12,26955710,"1499205600.000000000","1500455991.000000000",completed,"12.441",,,,,,,,,,,,,,,,,
"lasse__lasse__rsa__search13_1500455991.3757","| tstats sum(ICECAST.duration) AS duration from datamodel=REGIOCAST_ICECAST where (nodename = ICECAST) (ICECAST.Brand=""R.SA"") ((ICECAST.Channel=""R.SA Simulcast"")) (ICECAST.lookupAggregator=""homepage"") (ICECAST.duration>60) groupby ICECAST.unixStart 
| eval _time = 'ICECAST.unixStart'
| where _time < if(match(""@d"",""\d{10}""), ""@d"", relative_time(now(), ""@d"")) 

AND _time > if(match(""-14d@d"",""\d{10}""), ""-14d@d"", relative_time(now(), ""-14d@d""))
| eval duration = duration/60/60
 | timechart span=7d sum(duration) as duration | where isNotNull(duration)","KI1-V-S-9010","1500455991.399877",0,"UI:Dashboard:rsh_top_5_aggregatoren","1499205600.000000000","1500455991.000000000",48930,1500455991,2,search13,26955710,"1499205600.000000000","1500455991.000000000",completed,"12.1",,,,,,,,,,,,,,,,,
"lasse__lasse__rsa__search14_1500455991.3758","| tstats sum(ICECAST.duration) AS duration from datamodel=REGIOCAST_ICECAST where (nodename = ICECAST) (ICECAST.Brand=""R.SA"") ((ICECAST.Channel=""R.SA Simulcast"")) (ICECAST.lookupAggregator=""radiolikemee"") (ICECAST.duration>60) groupby ICECAST.unixStart 
| eval _time = 'ICECAST.unixStart'
| where _time < if(match(""@d"",""\d{10}""), ""@d"", relative_time(now(), ""@d"")) 

AND _time > if(match(""-14d@d"",""\d{10}""), ""-14d@d"", relative_time(now(), ""-14d@d""))
| eval duration = duration/60/60
 | timechart span=7d sum(duration) as duration | where isNotNull(duration)","KI1-V-S-9010","1500455991.437351",0,"UI:Dashboard:rsh_top_5_aggregatoren","1499205600.000000000","1500455991.000000000",23199,1500455996,2,search14,26955710,"1499205600.000000000","1500455991.000000000",completed,"9.775",,,,,,,,,,,,,,,,,
"lasse__lasse__rsa__search15_1500455991.3759","| tstats sum(ICECAST.duration) AS duration from datamodel=REGIOCAST_ICECAST where (nodename = ICECAST) (ICECAST.Brand=""R.SA"") ((ICECAST.Channel=""R.SA Simulcast"")) (ICECAST.lookupAggregator=""radiode"") (ICECAST.duration>60) groupby ICECAST.unixStart 
| eval _time = 'ICECAST.unixStart'
| where _time < if(match(""@d"",""\d{10}""), ""@d"", relative_time(now(), ""@d"")) 

AND _time > if(match(""-14d@d"",""\d{10}""), ""-14d@d"", relative_time(now(), ""-14d@d""))
| eval duration = duration/60/60
 | timechart span=7d sum(duration) as duration | where isNotNull(duration)","KI1-V-S-9010","1500455991.441532",0,"UI:Dashboard:rsh_top_5_aggregatoren","1499205600.000000000","1500455991.000000000",22553,1500455991,2,search15,26955710,"1499205600.000000000","1500455991.000000000",completed,"11.739",,,,,,,,,,,,,,,,,
"lasse__lasse__rsa__search16_1500455991.3760","| tstats sum(ICECAST.duration) AS duration from datamodel=REGIOCAST_ICECAST where (nodename = ICECAST) (ICECAST.Brand=""R.SA"") ((ICECAST.Channel=""R.SA Simulcast"")) (ICECAST.lookupAggregator=""vtuner"") (ICECAST.duration>60) groupby ICECAST.unixStart 
| eval _time = 'ICECAST.unixStart'
| where _time < if(match(""@d"",""\d{10}""), ""@d"", relative_time(now(), ""@d"")) 

AND _time > if(match(""-14d@d"",""\d{10}""), ""-14d@d"", relative_time(now(), ""-14d@d""))
| eval duration = duration/60/60
 | timechart span=7d sum(duration) as duration | where isNotNull(duration)","KI1-V-S-9010","1500455991.461449",0,"UI:Dashboard:rsh_top_5_aggregatoren","1499205600.000000000","1500455991.000000000",64182,1500455997,2,search16,26955710,"1499205600.000000000","1500455991.000000000",completed,"10.193",,,,,,,,,,,,,,,,,
"lasse__lasse__rsa__search17_1500455991.3761","| tstats sum(ICECAST.duration) AS duration from datamodel=REGIOCAST_ICECAST where (nodename = ICECAST) (ICECAST.Brand=""R.SA"") ((ICECAST.Channel=""R.SA Simulcast"")) (ICECAST.lookupAggregator=""tunein"") (ICECAST.duration>60) groupby ICECAST.unixStart 
| eval _time = 'ICECAST.unixStart'
| where _time < if(match(""@d"",""\d{10}""), ""@d"", relative_time(now(), ""@d"")) 

AND _time > if(match(""-14d@d"",""\d{10}""), ""-14d@d"", relative_time(now(), ""-14d@d""))
| eval duration = duration/60/60
 | timechart span=7d sum(duration) as duration | where isNotNull(duration)","KI1-V-S-9010","1500455991.479032",0,"UI:Dashboard:rsh_top_5_aggregatoren","1499205600.000000000","1500455991.000000000",44809,1500455997,2,search17,26955710,"1499205600.000000000","1500455991.000000000",completed,"9.91",,,,,,,,,,,,,,,,,
"lasse__lasse__rsa__search18_1500455991.3762","|tstats count AS ""Count"" from datamodel=REGIOCAST_ICECAST where (nodename = ICECAST) ((ICECAST.Channel=""R.SA Simulcast"")) (ICECAST.Brand=""R.SA"") (ICECAST.lookupAggregator=""homepage"")  (ICECAST.duration>3) groupby ICECAST.duration ICECAST.unixStart
| eval _time= 'ICECAST.unixStart'
| where _time < if(match(""@d"",""\d{10}""), ""@d"", relative_time(now(), ""@d"")) 

AND _time > if(match(""-14d@d"",""\d{10}""), ""-14d@d"", relative_time(now(), ""-14d@d""))

| eval category = if('ICECAST.duration' >60,""S2"",""temp"") | timechart span=1d sum(Count) as summe by category  
| eval S1='S2'+'temp'


| eval percent = (1-(S2/S1))*100 | fields percent | where isNotNull(percent)","KI1-V-S-9010","1500455991.506646",0,"UI:Dashboard:rsh_top_5_aggregatoren","1499205600.000000000","1500455991.000000000",68458,1500455997,14,search18,26955710,"1499205600.000000000","1500455991.000000000",completed,"9.581",,,,,,,,,,,,,,,,,
"lasse__lasse__rsa__search19_1500455991.3763","|tstats count AS ""Count"" from datamodel=REGIOCAST_ICECAST where (nodename = ICECAST) ((ICECAST.Channel=""R.SA Simulcast"")) (ICECAST.Brand=""R.SA"") (ICECAST.lookupAggregator=""radiolikemee"")  (ICECAST.duration>3) groupby ICECAST.duration ICECAST.unixStart
| eval _time= 'ICECAST.unixStart'
| where _time < if(match(""@d"",""\d{10}""), ""@d"", relative_time(now(), ""@d"")) 

AND _time > if(match(""-14d@d"",""\d{10}""), ""-14d@d"", relative_time(now(), ""-14d@d""))

| eval category = if('ICECAST.duration' >60,""S2"",""temp"") | timechart span=1d sum(Count) as summe by category  
| eval S1='S2'+'temp'


| eval percent = (1-(S2/S1))*100 | fields percent | where isNotNull(percent)","KI1-V-S-9010","1500455991.532952",0,"UI:Dashboard:rsh_top_5_aggregatoren","1499205600.000000000","1500455991.000000000",28618,1500455999,14,search19,26955710,"1499205600.000000000","1500455991.000000000",completed,"8.065",,,,,,,,,,,,,,,,,
"lasse__lasse__rsa__search20_1500455991.3764","|tstats count AS ""Count"" from datamodel=REGIOCAST_ICECAST where (nodename = ICECAST) ((ICECAST.Channel=""R.SA Simulcast"")) (ICECAST.Brand=""R.SA"") (ICECAST.lookupAggregator=""radiode"")  (ICECAST.duration>3) groupby ICECAST.duration ICECAST.unixStart
| eval _time= 'ICECAST.unixStart'
| where _time < if(match(""@d"",""\d{10}""), ""@d"", relative_time(now(), ""@d"")) 

AND _time > if(match(""-14d@d"",""\d{10}""), ""-14d@d"", relative_time(now(), ""-14d@d""))

| eval category = if('ICECAST.duration' >60,""S2"",""temp"") | timechart span=1d sum(Count) as summe by category  
| eval S1='S2'+'temp'


| eval percent = (1-(S2/S1))*100 | fields percent | where isNotNull(percent)","KI1-V-S-9010","1500455991.553153",0,"UI:Dashboard:rsh_top_5_aggregatoren","1499205600.000000000","1500455991.000000000",30149,1500456000,14,search20,26955710,"1499205600.000000000","1500455991.000000000",completed,"8.085",,,,,,,,,,,,,,,,,
"lasse__lasse__rsa__search21_1500455991.3765","|tstats count AS ""Count"" from datamodel=REGIOCAST_ICECAST where (nodename = ICECAST) ((ICECAST.Channel=""R.SA Simulcast"")) (ICECAST.Brand=""R.SA"") (ICECAST.lookupAggregator=""vtuner"")  (ICECAST.duration>3) groupby ICECAST.duration ICECAST.unixStart
| eval _time= 'ICECAST.unixStart'
| where _time < if(match(""@d"",""\d{10}""), ""@d"", relative_time(now(), ""@d"")) 

AND _time > if(match(""-14d@d"",""\d{10}""), ""-14d@d"", relative_time(now(), ""-14d@d""))

| eval category = if('ICECAST.duration' >60,""S2"",""temp"") | timechart span=1d sum(Count) as summe by category  
| eval S1='S2'+'temp'


| eval percent = (1-(S2/S1))*100 | fields percent | where isNotNull(percent)","KI1-V-S-9010","1500455991.559659",0,"UI:Dashboard:rsh_top_5_aggregatoren","1499205600.000000000","1500455991.000000000",74419,1500455997,14,search21,26955710,"1499205600.000000000","1500455991.000000000",completed,"9.954",,,,,,,,,,,,,,,,,
"lasse__lasse__rsa__search22_1500455991.3766","|tstats count AS ""Count"" from datamodel=REGIOCAST_ICECAST where (nodename = ICECAST) ((ICECAST.Channel=""R.SA Simulcast"")) (ICECAST.Brand=""R.SA"") (ICECAST.lookupAggregator=""tunein"")  (ICECAST.duration>3) groupby ICECAST.duration ICECAST.unixStart
| eval _time= 'ICECAST.unixStart'
| where _time < if(match(""@d"",""\d{10}""), ""@d"", relative_time(now(), ""@d"")) 

AND _time > if(match(""-14d@d"",""\d{10}""), ""-14d@d"", relative_time(now(), ""-14d@d""))

| eval category = if('ICECAST.duration' >60,""S2"",""temp"") | timechart span=1d sum(Count) as summe by category  
| eval S1='S2'+'temp'


| eval percent = (1-(S2/S1))*100 | fields percent | where isNotNull(percent)","KI1-V-S-9010","1500455991.593344",0,"UI:Dashboard:rsh_top_5_aggregatoren","1499205600.000000000","1500455991.000000000",57999,1500456000,14,search22,26955710,"1499205600.000000000","1500455991.000000000",completed,"8.34",,,,,,,,,,,,,,,,,
"rt_md_1500884293.9741","| metadata type=sourcetypes | search totalCount > 0","KI1-V-S-9010","1500884293.263740",1,"UI:Search",,,0,1500884293,13,,0,,,completed,"1.114",,,,,,,,,,,,,,,,,
